%YAML 1.1
%TAG !u! tag:unity3d.com,2011:
--- !u!29 &1
OcclusionCullingSettings:
  m_ObjectHideFlags: 0
  serializedVersion: 2
  m_OcclusionBakeSettings:
    smallestOccluder: 5
    smallestHole: 0.25
    backfaceThreshold: 100
  m_SceneGUID: 00000000000000000000000000000000
  m_OcclusionCullingData: {fileID: 0}
--- !u!104 &2
RenderSettings:
  m_ObjectHideFlags: 0
  serializedVersion: 8
  m_Fog: 0
  m_FogColor: {r: 0.5, g: 0.5, b: 0.5, a: 1}
  m_FogMode: 3
  m_FogDensity: 0.01
  m_LinearFogStart: 0
  m_LinearFogEnd: 300
  m_AmbientSkyColor: {r: 0.106, g: 0.1135, b: 0.1295, a: 0.5}
  m_AmbientEquatorColor: {r: 0.057, g: 0.0625, b: 0.0665, a: 0.5}
  m_AmbientGroundColor: {r: 0.0235, g: 0.0215, b: 0.0175, a: 0.5}
  m_AmbientIntensity: 0.5
  m_AmbientMode: 0
  m_SubtractiveShadowColor: {r: 0.42, g: 0.478, b: 0.627, a: 1}
  m_SkyboxMaterial: {fileID: 2100000, guid: bac19cf49c124754196012f08c123f34, type: 2}
  m_HaloStrength: 0.5
  m_FlareStrength: 1
  m_FlareFadeSpeed: 3
  m_HaloTexture: {fileID: 0}
  m_SpotCookie: {fileID: 10001, guid: 0000000000000000e000000000000000, type: 0}
  m_DefaultReflectionMode: 1
  m_DefaultReflectionResolution: 128
  m_ReflectionBounces: 1
  m_ReflectionIntensity: 0.5
  m_CustomReflection: {fileID: 8900000, guid: bab875665efdd084bbf5606dd306cf8c, type: 3}
  m_Sun: {fileID: 0}
  m_IndirectSpecularColor: {r: 0.4123114, g: 0.35246506, b: 0.29927424, a: 0.5}
--- !u!157 &4
LightmapSettings:
  m_ObjectHideFlags: 0
  serializedVersion: 11
  m_GIWorkflowMode: 1
  m_GISettings:
    serializedVersion: 2
    m_BounceScale: 1
    m_IndirectOutputScale: 1
    m_AlbedoBoost: 1
    m_TemporalCoherenceThreshold: 1
    m_EnvironmentLightingMode: 0
    m_EnableBakedLightmaps: 1
    m_EnableRealtimeLightmaps: 1
  m_LightmapEditorSettings:
    serializedVersion: 9
    m_Resolution: 2
    m_BakeResolution: 64
    m_TextureWidth: 1024
    m_TextureHeight: 1024
    m_AO: 0
    m_AOMaxDistance: 1
    m_CompAOExponent: 0
    m_CompAOExponentDirect: 0
    m_Padding: 2
    m_LightmapParameters: {fileID: 0}
    m_LightmapsBakeMode: 1
    m_TextureCompression: 1
    m_FinalGather: 0
    m_FinalGatherFiltering: 1
    m_FinalGatherRayCount: 1024
    m_ReflectionCompression: 2
    m_MixedBakeMode: 1
    m_BakeBackend: 0
    m_PVRSampling: 1
    m_PVRDirectSampleCount: 32
    m_PVRSampleCount: 500
    m_PVRBounces: 2
    m_PVRFiltering: 0
    m_PVRFilteringMode: 1
    m_PVRCulling: 1
    m_PVRFilteringGaussRadiusDirect: 1
    m_PVRFilteringGaussRadiusIndirect: 5
    m_PVRFilteringGaussRadiusAO: 2
    m_PVRFilteringAtrousColorSigma: 1
    m_PVRFilteringAtrousNormalSigma: 1
    m_PVRFilteringAtrousPositionSigma: 1
  m_LightingDataAsset: {fileID: 112000000, guid: b27a1670a4b5cdc4e9ceee504d149bac,
    type: 2}
  m_UseShadowmask: 0
--- !u!196 &5
NavMeshSettings:
  serializedVersion: 2
  m_ObjectHideFlags: 0
  m_BuildSettings:
    serializedVersion: 2
    agentTypeID: 0
    agentRadius: 0.5
    agentHeight: 2
    agentSlope: 45
    agentClimb: 0.4
    ledgeDropHeight: 0
    maxJumpAcrossDistance: 0
    minRegionArea: 2
    manualCellSize: 0
    cellSize: 0.16666667
    manualTileSize: 0
    tileSize: 256
    accuratePlacement: 0
  m_NavMeshData: {fileID: 0}
--- !u!1001 &18339982
Prefab:
  m_ObjectHideFlags: 0
  serializedVersion: 2
  m_Modification:
    m_TransformParent: {fileID: 1075876286}
    m_Modifications:
    - target: {fileID: 481922, guid: d93ec03b51f37fd4d905a60a08a4fbbc, type: 2}
      propertyPath: m_LocalPosition.x
      value: 0
      objectReference: {fileID: 0}
    - target: {fileID: 481922, guid: d93ec03b51f37fd4d905a60a08a4fbbc, type: 2}
      propertyPath: m_LocalPosition.y
      value: 0
      objectReference: {fileID: 0}
    - target: {fileID: 481922, guid: d93ec03b51f37fd4d905a60a08a4fbbc, type: 2}
      propertyPath: m_LocalPosition.z
      value: 0
      objectReference: {fileID: 0}
    - target: {fileID: 481922, guid: d93ec03b51f37fd4d905a60a08a4fbbc, type: 2}
      propertyPath: m_LocalRotation.x
      value: 0
      objectReference: {fileID: 0}
    - target: {fileID: 481922, guid: d93ec03b51f37fd4d905a60a08a4fbbc, type: 2}
      propertyPath: m_LocalRotation.y
      value: 0
      objectReference: {fileID: 0}
    - target: {fileID: 481922, guid: d93ec03b51f37fd4d905a60a08a4fbbc, type: 2}
      propertyPath: m_LocalRotation.z
      value: 0
      objectReference: {fileID: 0}
    - target: {fileID: 481922, guid: d93ec03b51f37fd4d905a60a08a4fbbc, type: 2}
      propertyPath: m_LocalRotation.w
      value: 1
      objectReference: {fileID: 0}
    - target: {fileID: 481922, guid: d93ec03b51f37fd4d905a60a08a4fbbc, type: 2}
      propertyPath: m_RootOrder
      value: 0
      objectReference: {fileID: 0}
    m_RemovedComponents: []
  m_ParentPrefab: {fileID: 100100000, guid: d93ec03b51f37fd4d905a60a08a4fbbc, type: 2}
  m_RootGameObject: {fileID: 852092241}
  m_IsPrefabParent: 0
--- !u!4 &18339983
Transform:
  m_ObjectHideFlags: 0
  m_PrefabParentObject: {fileID: 481922, guid: d93ec03b51f37fd4d905a60a08a4fbbc, type: 2}
  m_PrefabInternal: {fileID: 18339982}
  m_GameObject: {fileID: 852092241}
  m_LocalRotation: {x: 0, y: 0, z: 0, w: 1}
  m_LocalPosition: {x: 0, y: 0, z: 0}
  m_LocalScale: {x: 1, y: 1, z: 1}
  m_Children: []
  m_Father: {fileID: 1075876286}
  m_RootOrder: 0
  m_LocalEulerAnglesHint: {x: 0, y: 0, z: 0}
--- !u!1 &81728184
GameObject:
  m_ObjectHideFlags: 0
  m_PrefabParentObject: {fileID: 161598, guid: 9838f503122e261409e6efaf72c2a6b2, type: 2}
  m_PrefabInternal: {fileID: 193259061}
  serializedVersion: 5
  m_Component:
  - component: {fileID: 81728185}
  - component: {fileID: 81728186}
  m_Layer: 0
  m_Name: light_tertiary
  m_TagString: Untagged
  m_Icon: {fileID: 0}
  m_NavMeshLayer: 0
  m_StaticEditorFlags: 4294967295
  m_IsActive: 1
--- !u!4 &81728185
Transform:
  m_ObjectHideFlags: 0
  m_PrefabParentObject: {fileID: 491194, guid: 9838f503122e261409e6efaf72c2a6b2, type: 2}
  m_PrefabInternal: {fileID: 193259061}
  m_GameObject: {fileID: 81728184}
  m_LocalRotation: {x: 0.17497529, y: -0.7116945, z: -0.06059354, w: -0.67764527}
  m_LocalPosition: {x: 0, y: 0, z: 0}
  m_LocalScale: {x: 1, y: 1, z: 1}
  m_Children: []
  m_Father: {fileID: 1858142667}
  m_RootOrder: 2
  m_LocalEulerAnglesHint: {x: 0, y: 0, z: 0}
--- !u!108 &81728186
Light:
  m_ObjectHideFlags: 0
  m_PrefabParentObject: {fileID: 10863902, guid: 9838f503122e261409e6efaf72c2a6b2,
    type: 2}
  m_PrefabInternal: {fileID: 193259061}
  m_GameObject: {fileID: 81728184}
  m_Enabled: 1
  serializedVersion: 8
  m_Type: 1
  m_Color: {r: 0.6865052, g: 0.85294116, b: 0.620891, a: 1}
  m_Intensity: 0.25
  m_Range: 10
  m_SpotAngle: 30
  m_CookieSize: 10
  m_Shadows:
    m_Type: 0
    m_Resolution: -1
    m_CustomResolution: -1
    m_Strength: 1
    m_Bias: 0.05
    m_NormalBias: 0.4
    m_NearPlane: 0.2
  m_Cookie: {fileID: 0}
  m_DrawHalo: 0
  m_Flare: {fileID: 0}
  m_RenderMode: 0
  m_CullingMask:
    serializedVersion: 2
    m_Bits: 4294967295
  m_Lightmapping: 4
  m_AreaSize: {x: 1, y: 1}
  m_BounceIntensity: 1
  m_FalloffTable:
    m_Table[0]: 0
    m_Table[1]: 0
    m_Table[2]: 0
    m_Table[3]: 0
    m_Table[4]: 0
    m_Table[5]: 0
    m_Table[6]: 0
    m_Table[7]: 0
    m_Table[8]: 0
    m_Table[9]: 0
    m_Table[10]: 0
    m_Table[11]: 0
    m_Table[12]: 0
  m_ColorTemperature: 6570
  m_UseColorTemperature: 0
  m_ShadowRadius: 0
  m_ShadowAngle: 0
--- !u!1 &151134103
GameObject:
  m_ObjectHideFlags: 0
  m_PrefabParentObject: {fileID: 179510, guid: bee8d047e16101c438fb33382ab66935, type: 2}
  m_PrefabInternal: {fileID: 1455511921}
  serializedVersion: 5
  m_Component:
  - component: {fileID: 1455511922}
  - component: {fileID: 151134106}
  - component: {fileID: 151134105}
  - component: {fileID: 151134104}
  m_Layer: 0
  m_Name: rock_e
  m_TagString: Untagged
  m_Icon: {fileID: 0}
  m_NavMeshLayer: 0
  m_StaticEditorFlags: 4294967295
  m_IsActive: 1
--- !u!65 &151134104
BoxCollider:
  m_ObjectHideFlags: 0
  m_PrefabParentObject: {fileID: 6553658, guid: bee8d047e16101c438fb33382ab66935,
    type: 2}
  m_PrefabInternal: {fileID: 1455511921}
  m_GameObject: {fileID: 151134103}
  m_Material: {fileID: 0}
  m_IsTrigger: 0
  m_Enabled: 1
  serializedVersion: 2
  m_Size: {x: 0.99902785, y: 1.2462721, z: 0.96796495}
  m_Center: {x: -0.055308983, y: 0.423136, z: 0.02385047}
--- !u!23 &151134105
MeshRenderer:
  m_ObjectHideFlags: 0
  m_PrefabParentObject: {fileID: 2322844, guid: bee8d047e16101c438fb33382ab66935,
    type: 2}
  m_PrefabInternal: {fileID: 1455511921}
  m_GameObject: {fileID: 151134103}
  m_Enabled: 1
  m_CastShadows: 1
  m_ReceiveShadows: 1
  m_MotionVectors: 1
  m_LightProbeUsage: 1
  m_ReflectionProbeUsage: 1
  m_Materials:
  - {fileID: 2100000, guid: 76a6016f10bc74842bb69b1a1a32753e, type: 2}
  m_StaticBatchInfo:
    firstSubMesh: 0
    subMeshCount: 0
  m_StaticBatchRoot: {fileID: 0}
  m_ProbeAnchor: {fileID: 0}
  m_LightProbeVolumeOverride: {fileID: 0}
  m_ScaleInLightmap: 1
  m_PreserveUVs: 0
  m_IgnoreNormalsForChartDetection: 0
  m_ImportantGI: 0
  m_SelectedEditorRenderState: 3
  m_MinimumChartSize: 4
  m_AutoUVMaxDistance: 0.5
  m_AutoUVMaxAngle: 89
  m_LightmapParameters: {fileID: 0}
  m_SortingLayerID: 0
  m_SortingLayer: 0
  m_SortingOrder: 0
--- !u!33 &151134106
MeshFilter:
  m_ObjectHideFlags: 0
  m_PrefabParentObject: {fileID: 3338112, guid: bee8d047e16101c438fb33382ab66935,
    type: 2}
  m_PrefabInternal: {fileID: 1455511921}
  m_GameObject: {fileID: 151134103}
  m_Mesh: {fileID: 4300000, guid: 7f3f9dd74e3766a4dbf5bdbbc9ee54ff, type: 3}
--- !u!1001 &193259061
Prefab:
  m_ObjectHideFlags: 0
  serializedVersion: 2
  m_Modification:
    m_TransformParent: {fileID: 1603946219}
    m_Modifications:
    - target: {fileID: 494650, guid: 9838f503122e261409e6efaf72c2a6b2, type: 2}
      propertyPath: m_LocalPosition.x
      value: 0
      objectReference: {fileID: 0}
    - target: {fileID: 494650, guid: 9838f503122e261409e6efaf72c2a6b2, type: 2}
      propertyPath: m_LocalPosition.y
      value: 0
      objectReference: {fileID: 0}
    - target: {fileID: 494650, guid: 9838f503122e261409e6efaf72c2a6b2, type: 2}
      propertyPath: m_LocalPosition.z
      value: 0
      objectReference: {fileID: 0}
    - target: {fileID: 494650, guid: 9838f503122e261409e6efaf72c2a6b2, type: 2}
      propertyPath: m_LocalRotation.x
      value: 0
      objectReference: {fileID: 0}
    - target: {fileID: 494650, guid: 9838f503122e261409e6efaf72c2a6b2, type: 2}
      propertyPath: m_LocalRotation.y
      value: 0
      objectReference: {fileID: 0}
    - target: {fileID: 494650, guid: 9838f503122e261409e6efaf72c2a6b2, type: 2}
      propertyPath: m_LocalRotation.z
      value: 0
      objectReference: {fileID: 0}
    - target: {fileID: 494650, guid: 9838f503122e261409e6efaf72c2a6b2, type: 2}
      propertyPath: m_LocalRotation.w
      value: 1
      objectReference: {fileID: 0}
    - target: {fileID: 494650, guid: 9838f503122e261409e6efaf72c2a6b2, type: 2}
      propertyPath: m_RootOrder
      value: 2
      objectReference: {fileID: 0}
    m_RemovedComponents: []
  m_ParentPrefab: {fileID: 100100000, guid: 9838f503122e261409e6efaf72c2a6b2, type: 2}
  m_RootGameObject: {fileID: 1893912752}
  m_IsPrefabParent: 0
--- !u!1 &206849734
GameObject:
  m_ObjectHideFlags: 0
  m_PrefabParentObject: {fileID: 100000, guid: 42ab0f5c5332fef489b547c33416feda, type: 3}
  m_PrefabInternal: {fileID: 1629676748}
  serializedVersion: 5
  m_Component:
  - component: {fileID: 1629676749}
  - component: {fileID: 206849736}
  - component: {fileID: 206849735}
  m_Layer: 0
  m_Name: ground_a
  m_TagString: Untagged
  m_Icon: {fileID: 0}
  m_NavMeshLayer: 0
  m_StaticEditorFlags: 0
  m_IsActive: 1
--- !u!23 &206849735
MeshRenderer:
  m_ObjectHideFlags: 0
  m_PrefabParentObject: {fileID: 2300000, guid: 42ab0f5c5332fef489b547c33416feda,
    type: 3}
  m_PrefabInternal: {fileID: 1629676748}
  m_GameObject: {fileID: 206849734}
  m_Enabled: 1
  m_CastShadows: 1
  m_ReceiveShadows: 1
  m_MotionVectors: 1
  m_LightProbeUsage: 1
  m_ReflectionProbeUsage: 1
  m_Materials:
  - {fileID: 2100000, guid: 3e9f0db9ec9f43b48be4e019a749f8be, type: 2}
  m_StaticBatchInfo:
    firstSubMesh: 0
    subMeshCount: 0
  m_StaticBatchRoot: {fileID: 0}
  m_ProbeAnchor: {fileID: 0}
  m_LightProbeVolumeOverride: {fileID: 0}
  m_ScaleInLightmap: 1
  m_PreserveUVs: 0
  m_IgnoreNormalsForChartDetection: 0
  m_ImportantGI: 0
  m_SelectedEditorRenderState: 3
  m_MinimumChartSize: 4
  m_AutoUVMaxDistance: 0.5
  m_AutoUVMaxAngle: 89
  m_LightmapParameters: {fileID: 0}
  m_SortingLayerID: 0
  m_SortingLayer: 0
  m_SortingOrder: 0
--- !u!33 &206849736
MeshFilter:
  m_ObjectHideFlags: 0
  m_PrefabParentObject: {fileID: 3300000, guid: 42ab0f5c5332fef489b547c33416feda,
    type: 3}
  m_PrefabInternal: {fileID: 1629676748}
  m_GameObject: {fileID: 206849734}
  m_Mesh: {fileID: 4300000, guid: 42ab0f5c5332fef489b547c33416feda, type: 3}
--- !u!1 &226254627
GameObject:
  m_ObjectHideFlags: 0
  m_PrefabParentObject: {fileID: 105902, guid: 9838f503122e261409e6efaf72c2a6b2, type: 2}
  m_PrefabInternal: {fileID: 193259061}
  serializedVersion: 5
  m_Component:
  - component: {fileID: 226254628}
  - component: {fileID: 226254629}
  m_Layer: 0
  m_Name: light_primary
  m_TagString: Untagged
  m_Icon: {fileID: 0}
  m_NavMeshLayer: 0
  m_StaticEditorFlags: 4294967295
  m_IsActive: 1
--- !u!4 &226254628
Transform:
  m_ObjectHideFlags: 0
  m_PrefabParentObject: {fileID: 407488, guid: 9838f503122e261409e6efaf72c2a6b2, type: 2}
  m_PrefabInternal: {fileID: 193259061}
  m_GameObject: {fileID: 226254627}
  m_LocalRotation: {x: 0.40497306, y: -0.2591494, z: 0.120843545, w: 0.8684672}
  m_LocalPosition: {x: 0, y: 0, z: 0}
  m_LocalScale: {x: 1, y: 1, z: 1}
  m_Children: []
  m_Father: {fileID: 1858142667}
  m_RootOrder: 0
  m_LocalEulerAnglesHint: {x: 0, y: 0, z: 0}
--- !u!108 &226254629
Light:
  m_ObjectHideFlags: 0
  m_PrefabParentObject: {fileID: 10872170, guid: 9838f503122e261409e6efaf72c2a6b2,
    type: 2}
  m_PrefabInternal: {fileID: 193259061}
  m_GameObject: {fileID: 226254627}
  m_Enabled: 1
  serializedVersion: 8
  m_Type: 1
  m_Color: {r: 1, g: 0.95686275, b: 0.8392157, a: 1}
  m_Intensity: 0.75
  m_Range: 10
  m_SpotAngle: 30
  m_CookieSize: 10
  m_Shadows:
    m_Type: 1
    m_Resolution: -1
    m_CustomResolution: -1
    m_Strength: 1
    m_Bias: 0.05
    m_NormalBias: 0
    m_NearPlane: 0.2
  m_Cookie: {fileID: 0}
  m_DrawHalo: 0
  m_Flare: {fileID: 0}
  m_RenderMode: 0
  m_CullingMask:
    serializedVersion: 2
    m_Bits: 4294967295
  m_Lightmapping: 4
  m_AreaSize: {x: 1, y: 1}
  m_BounceIntensity: 1
  m_FalloffTable:
    m_Table[0]: 0
    m_Table[1]: 0
    m_Table[2]: 0
    m_Table[3]: 0
    m_Table[4]: 0
    m_Table[5]: 0
    m_Table[6]: 0
    m_Table[7]: 0
    m_Table[8]: 0
    m_Table[9]: 0
    m_Table[10]: 0
    m_Table[11]: 0
    m_Table[12]: 0
  m_ColorTemperature: 6570
  m_UseColorTemperature: 0
  m_ShadowRadius: 0
  m_ShadowAngle: 0
--- !u!1001 &231947882
Prefab:
  m_ObjectHideFlags: 0
  serializedVersion: 2
  m_Modification:
    m_TransformParent: {fileID: 1075876286}
    m_Modifications:
    - target: {fileID: 448766, guid: 1bbb9f65959851443977b14c98740663, type: 2}
      propertyPath: m_LocalPosition.x
      value: 6
      objectReference: {fileID: 0}
    - target: {fileID: 448766, guid: 1bbb9f65959851443977b14c98740663, type: 2}
      propertyPath: m_LocalPosition.y
      value: 0
      objectReference: {fileID: 0}
    - target: {fileID: 448766, guid: 1bbb9f65959851443977b14c98740663, type: 2}
      propertyPath: m_LocalPosition.z
      value: 0
      objectReference: {fileID: 0}
    - target: {fileID: 448766, guid: 1bbb9f65959851443977b14c98740663, type: 2}
      propertyPath: m_LocalRotation.x
      value: 0
      objectReference: {fileID: 0}
    - target: {fileID: 448766, guid: 1bbb9f65959851443977b14c98740663, type: 2}
      propertyPath: m_LocalRotation.y
      value: 0
      objectReference: {fileID: 0}
    - target: {fileID: 448766, guid: 1bbb9f65959851443977b14c98740663, type: 2}
      propertyPath: m_LocalRotation.z
      value: 0
      objectReference: {fileID: 0}
    - target: {fileID: 448766, guid: 1bbb9f65959851443977b14c98740663, type: 2}
      propertyPath: m_LocalRotation.w
      value: 1
      objectReference: {fileID: 0}
    - target: {fileID: 448766, guid: 1bbb9f65959851443977b14c98740663, type: 2}
      propertyPath: m_RootOrder
      value: 3
      objectReference: {fileID: 0}
    m_RemovedComponents: []
  m_ParentPrefab: {fileID: 100100000, guid: 1bbb9f65959851443977b14c98740663, type: 2}
  m_RootGameObject: {fileID: 1760287073}
  m_IsPrefabParent: 0
--- !u!4 &231947883
Transform:
  m_ObjectHideFlags: 0
  m_PrefabParentObject: {fileID: 448766, guid: 1bbb9f65959851443977b14c98740663, type: 2}
  m_PrefabInternal: {fileID: 231947882}
  m_GameObject: {fileID: 1760287073}
  m_LocalRotation: {x: 0, y: 0, z: 0, w: 1}
  m_LocalPosition: {x: 6, y: 0, z: 0}
  m_LocalScale: {x: 1, y: 1, z: 1}
  m_Children: []
  m_Father: {fileID: 1075876286}
  m_RootOrder: 3
  m_LocalEulerAnglesHint: {x: 0, y: 0, z: 0}
--- !u!1001 &255644571
Prefab:
  m_ObjectHideFlags: 0
  serializedVersion: 2
  m_Modification:
    m_TransformParent: {fileID: 1075876286}
    m_Modifications:
    - target: {fileID: 499504, guid: 5c5d6555d9ad54d49a4654c80774e668, type: 2}
      propertyPath: m_LocalPosition.x
      value: 0
      objectReference: {fileID: 0}
    - target: {fileID: 499504, guid: 5c5d6555d9ad54d49a4654c80774e668, type: 2}
      propertyPath: m_LocalPosition.y
      value: 0
      objectReference: {fileID: 0}
    - target: {fileID: 499504, guid: 5c5d6555d9ad54d49a4654c80774e668, type: 2}
      propertyPath: m_LocalPosition.z
      value: 6
      objectReference: {fileID: 0}
    - target: {fileID: 499504, guid: 5c5d6555d9ad54d49a4654c80774e668, type: 2}
      propertyPath: m_LocalRotation.x
      value: 0
      objectReference: {fileID: 0}
    - target: {fileID: 499504, guid: 5c5d6555d9ad54d49a4654c80774e668, type: 2}
      propertyPath: m_LocalRotation.y
      value: 0
      objectReference: {fileID: 0}
    - target: {fileID: 499504, guid: 5c5d6555d9ad54d49a4654c80774e668, type: 2}
      propertyPath: m_LocalRotation.z
      value: 0
      objectReference: {fileID: 0}
    - target: {fileID: 499504, guid: 5c5d6555d9ad54d49a4654c80774e668, type: 2}
      propertyPath: m_LocalRotation.w
      value: 1
      objectReference: {fileID: 0}
    - target: {fileID: 499504, guid: 5c5d6555d9ad54d49a4654c80774e668, type: 2}
      propertyPath: m_RootOrder
      value: 12
      objectReference: {fileID: 0}
    m_RemovedComponents: []
  m_ParentPrefab: {fileID: 100100000, guid: 5c5d6555d9ad54d49a4654c80774e668, type: 2}
  m_RootGameObject: {fileID: 393893823}
  m_IsPrefabParent: 0
--- !u!4 &255644572
Transform:
  m_ObjectHideFlags: 0
  m_PrefabParentObject: {fileID: 499504, guid: 5c5d6555d9ad54d49a4654c80774e668, type: 2}
  m_PrefabInternal: {fileID: 255644571}
  m_GameObject: {fileID: 393893823}
  m_LocalRotation: {x: 0, y: 0, z: 0, w: 1}
  m_LocalPosition: {x: 0, y: 0, z: 6}
  m_LocalScale: {x: 1, y: 1, z: 1}
  m_Children: []
  m_Father: {fileID: 1075876286}
  m_RootOrder: 12
  m_LocalEulerAnglesHint: {x: 0, y: 0, z: 0}
--- !u!1 &279510161
GameObject:
  m_ObjectHideFlags: 0
  m_PrefabParentObject: {fileID: 109170, guid: 6a67aaef2f6b30443ac78ea7d762a346, type: 2}
  m_PrefabInternal: {fileID: 1407276775}
  serializedVersion: 5
  m_Component:
  - component: {fileID: 1407276776}
  - component: {fileID: 279510164}
  - component: {fileID: 279510163}
  - component: {fileID: 279510162}
  m_Layer: 0
  m_Name: rock_c
  m_TagString: Untagged
  m_Icon: {fileID: 0}
  m_NavMeshLayer: 0
  m_StaticEditorFlags: 4294967295
  m_IsActive: 1
--- !u!65 &279510162
BoxCollider:
  m_ObjectHideFlags: 0
  m_PrefabParentObject: {fileID: 6517636, guid: 6a67aaef2f6b30443ac78ea7d762a346,
    type: 2}
  m_PrefabInternal: {fileID: 1407276775}
  m_GameObject: {fileID: 279510161}
  m_Material: {fileID: 0}
  m_IsTrigger: 0
  m_Enabled: 1
  serializedVersion: 2
  m_Size: {x: 0.625497, y: 1.148514, z: 0.64740396}
  m_Center: {x: 0.0170355, y: 0.37425697, z: 0.04879698}
--- !u!23 &279510163
MeshRenderer:
  m_ObjectHideFlags: 0
  m_PrefabParentObject: {fileID: 2342844, guid: 6a67aaef2f6b30443ac78ea7d762a346,
    type: 2}
  m_PrefabInternal: {fileID: 1407276775}
  m_GameObject: {fileID: 279510161}
  m_Enabled: 1
  m_CastShadows: 1
  m_ReceiveShadows: 1
  m_MotionVectors: 1
  m_LightProbeUsage: 1
  m_ReflectionProbeUsage: 1
  m_Materials:
  - {fileID: 2100000, guid: 76a6016f10bc74842bb69b1a1a32753e, type: 2}
  m_StaticBatchInfo:
    firstSubMesh: 0
    subMeshCount: 0
  m_StaticBatchRoot: {fileID: 0}
  m_ProbeAnchor: {fileID: 0}
  m_LightProbeVolumeOverride: {fileID: 0}
  m_ScaleInLightmap: 1
  m_PreserveUVs: 0
  m_IgnoreNormalsForChartDetection: 0
  m_ImportantGI: 0
  m_SelectedEditorRenderState: 3
  m_MinimumChartSize: 4
  m_AutoUVMaxDistance: 0.5
  m_AutoUVMaxAngle: 89
  m_LightmapParameters: {fileID: 0}
  m_SortingLayerID: 0
  m_SortingLayer: 0
  m_SortingOrder: 0
--- !u!33 &279510164
MeshFilter:
  m_ObjectHideFlags: 0
  m_PrefabParentObject: {fileID: 3338944, guid: 6a67aaef2f6b30443ac78ea7d762a346,
    type: 2}
  m_PrefabInternal: {fileID: 1407276775}
  m_GameObject: {fileID: 279510161}
  m_Mesh: {fileID: 4300000, guid: 9182df85a73960c4d87b889f3639ba9b, type: 3}
--- !u!1 &393893823
GameObject:
  m_ObjectHideFlags: 0
  m_PrefabParentObject: {fileID: 144770, guid: 5c5d6555d9ad54d49a4654c80774e668, type: 2}
  m_PrefabInternal: {fileID: 255644571}
  serializedVersion: 5
  m_Component:
  - component: {fileID: 255644572}
  - component: {fileID: 393893826}
  - component: {fileID: 393893825}
  - component: {fileID: 393893824}
  m_Layer: 0
  m_Name: rock_m
  m_TagString: Untagged
  m_Icon: {fileID: 0}
  m_NavMeshLayer: 0
  m_StaticEditorFlags: 4294967295
  m_IsActive: 1
--- !u!65 &393893824
BoxCollider:
  m_ObjectHideFlags: 0
  m_PrefabParentObject: {fileID: 6592852, guid: 5c5d6555d9ad54d49a4654c80774e668,
    type: 2}
  m_PrefabInternal: {fileID: 255644571}
  m_GameObject: {fileID: 393893823}
  m_Material: {fileID: 0}
  m_IsTrigger: 0
  m_Enabled: 1
  serializedVersion: 2
  m_Size: {x: 1.667655, y: 2.1117318, z: 1.6446719}
  m_Center: {x: 0.0047454834, y: 0.85586596, z: -0.005260974}
--- !u!23 &393893825
MeshRenderer:
  m_ObjectHideFlags: 0
  m_PrefabParentObject: {fileID: 2364640, guid: 5c5d6555d9ad54d49a4654c80774e668,
    type: 2}
  m_PrefabInternal: {fileID: 255644571}
  m_GameObject: {fileID: 393893823}
  m_Enabled: 1
  m_CastShadows: 1
  m_ReceiveShadows: 1
  m_MotionVectors: 1
  m_LightProbeUsage: 1
  m_ReflectionProbeUsage: 1
  m_Materials:
  - {fileID: 2100000, guid: 76a6016f10bc74842bb69b1a1a32753e, type: 2}
  m_StaticBatchInfo:
    firstSubMesh: 0
    subMeshCount: 0
  m_StaticBatchRoot: {fileID: 0}
  m_ProbeAnchor: {fileID: 0}
  m_LightProbeVolumeOverride: {fileID: 0}
  m_ScaleInLightmap: 1
  m_PreserveUVs: 0
  m_IgnoreNormalsForChartDetection: 0
  m_ImportantGI: 0
  m_SelectedEditorRenderState: 3
  m_MinimumChartSize: 4
  m_AutoUVMaxDistance: 0.5
  m_AutoUVMaxAngle: 89
  m_LightmapParameters: {fileID: 0}
  m_SortingLayerID: 0
  m_SortingLayer: 0
  m_SortingOrder: 0
--- !u!33 &393893826
MeshFilter:
  m_ObjectHideFlags: 0
  m_PrefabParentObject: {fileID: 3379410, guid: 5c5d6555d9ad54d49a4654c80774e668,
    type: 2}
  m_PrefabInternal: {fileID: 255644571}
  m_GameObject: {fileID: 393893823}
  m_Mesh: {fileID: 4300000, guid: 644255a0198675a44828611a93cd87d9, type: 3}
--- !u!1 &597986481
GameObject:
  m_ObjectHideFlags: 0
  m_PrefabParentObject: {fileID: 0}
  m_PrefabInternal: {fileID: 0}
  serializedVersion: 5
  m_Component:
  - component: {fileID: 597986482}
  - component: {fileID: 597986486}
  - component: {fileID: 597986485}
  - component: {fileID: 597986484}
  - component: {fileID: 597986483}
  m_Layer: 0
  m_Name: camera
  m_TagString: Untagged
  m_Icon: {fileID: 0}
  m_NavMeshLayer: 0
  m_StaticEditorFlags: 0
  m_IsActive: 1
--- !u!4 &597986482
Transform:
  m_ObjectHideFlags: 0
  m_PrefabParentObject: {fileID: 0}
  m_PrefabInternal: {fileID: 0}
  m_GameObject: {fileID: 597986481}
  m_LocalRotation: {x: 0.2760999, y: -0.18227133, z: 0.0534138, w: 0.9421747}
  m_LocalPosition: {x: 7.46, y: 7.97, z: -9.08}
  m_LocalScale: {x: 1, y: 1, z: 1}
  m_Children: []
  m_Father: {fileID: 1603946219}
  m_RootOrder: 0
  m_LocalEulerAnglesHint: {x: 0, y: 0, z: 0}
--- !u!81 &597986483
AudioListener:
  m_ObjectHideFlags: 0
  m_PrefabParentObject: {fileID: 0}
  m_PrefabInternal: {fileID: 0}
  m_GameObject: {fileID: 597986481}
  m_Enabled: 1
--- !u!92 &597986484
Behaviour:
  m_ObjectHideFlags: 0
  m_PrefabParentObject: {fileID: 0}
  m_PrefabInternal: {fileID: 0}
  m_GameObject: {fileID: 597986481}
  m_Enabled: 1
--- !u!124 &597986485
Behaviour:
  m_ObjectHideFlags: 0
  m_PrefabParentObject: {fileID: 0}
  m_PrefabInternal: {fileID: 0}
  m_GameObject: {fileID: 597986481}
  m_Enabled: 1
--- !u!20 &597986486
Camera:
  m_ObjectHideFlags: 0
  m_PrefabParentObject: {fileID: 0}
  m_PrefabInternal: {fileID: 0}
  m_GameObject: {fileID: 597986481}
  m_Enabled: 1
  serializedVersion: 2
  m_ClearFlags: 2
  m_BackGroundColor: {r: 0.10196078, g: 0.10196078, b: 0.10196078, a: 1}
  m_NormalizedViewPortRect:
    serializedVersion: 2
    x: 0
    y: 0
    width: 1
    height: 1
  near clip plane: 0.3
  far clip plane: 1000
  field of view: 60
  orthographic: 0
  orthographic size: 5
  m_Depth: 0
  m_CullingMask:
    serializedVersion: 2
    m_Bits: 4294967295
  m_RenderingPath: -1
  m_TargetTexture: {fileID: 0}
  m_TargetDisplay: 0
  m_TargetEye: 3
  m_HDR: 0
  m_AllowMSAA: 1
  m_ForceIntoRT: 0
  m_OcclusionCulling: 1
  m_StereoConvergence: 10
  m_StereoSeparation: 0.022
  m_StereoMirrorMode: 0
--- !u!1001 &710605153
Prefab:
  m_ObjectHideFlags: 0
  serializedVersion: 2
  m_Modification:
    m_TransformParent: {fileID: 1075876286}
    m_Modifications:
    - target: {fileID: 430148, guid: 7505f79cb619cfd4ebb6af0704ad4260, type: 2}
      propertyPath: m_LocalPosition.x
      value: 6
      objectReference: {fileID: 0}
    - target: {fileID: 430148, guid: 7505f79cb619cfd4ebb6af0704ad4260, type: 2}
      propertyPath: m_LocalPosition.y
      value: 0
      objectReference: {fileID: 0}
    - target: {fileID: 430148, guid: 7505f79cb619cfd4ebb6af0704ad4260, type: 2}
      propertyPath: m_LocalPosition.z
      value: 6
      objectReference: {fileID: 0}
    - target: {fileID: 430148, guid: 7505f79cb619cfd4ebb6af0704ad4260, type: 2}
      propertyPath: m_LocalRotation.x
      value: 0
      objectReference: {fileID: 0}
    - target: {fileID: 430148, guid: 7505f79cb619cfd4ebb6af0704ad4260, type: 2}
      propertyPath: m_LocalRotation.y
      value: 0
      objectReference: {fileID: 0}
    - target: {fileID: 430148, guid: 7505f79cb619cfd4ebb6af0704ad4260, type: 2}
      propertyPath: m_LocalRotation.z
      value: 0
      objectReference: {fileID: 0}
    - target: {fileID: 430148, guid: 7505f79cb619cfd4ebb6af0704ad4260, type: 2}
      propertyPath: m_LocalRotation.w
      value: 1
      objectReference: {fileID: 0}
    - target: {fileID: 430148, guid: 7505f79cb619cfd4ebb6af0704ad4260, type: 2}
      propertyPath: m_RootOrder
      value: 15
      objectReference: {fileID: 0}
    m_RemovedComponents: []
  m_ParentPrefab: {fileID: 100100000, guid: 7505f79cb619cfd4ebb6af0704ad4260, type: 2}
  m_RootGameObject: {fileID: 1533971285}
  m_IsPrefabParent: 0
--- !u!4 &710605154
Transform:
  m_ObjectHideFlags: 0
  m_PrefabParentObject: {fileID: 430148, guid: 7505f79cb619cfd4ebb6af0704ad4260, type: 2}
  m_PrefabInternal: {fileID: 710605153}
  m_GameObject: {fileID: 1533971285}
  m_LocalRotation: {x: 0, y: 0, z: 0, w: 1}
  m_LocalPosition: {x: 6, y: 0, z: 6}
  m_LocalScale: {x: 1, y: 1, z: 1}
  m_Children: []
  m_Father: {fileID: 1075876286}
  m_RootOrder: 15
  m_LocalEulerAnglesHint: {x: 0, y: 0, z: 0}
--- !u!1 &724482308
GameObject:
  m_ObjectHideFlags: 0
  m_PrefabParentObject: {fileID: 103450, guid: 4436f5b141ae4074082424c09570acb3, type: 2}
  m_PrefabInternal: {fileID: 1564541708}
  serializedVersion: 5
  m_Component:
  - component: {fileID: 1564541710}
  - component: {fileID: 724482311}
  - component: {fileID: 724482310}
  - component: {fileID: 724482309}
  m_Layer: 0
  m_Name: rock_b
  m_TagString: Untagged
  m_Icon: {fileID: 0}
  m_NavMeshLayer: 0
  m_StaticEditorFlags: 4294967295
  m_IsActive: 1
--- !u!65 &724482309
BoxCollider:
  m_ObjectHideFlags: 0
  m_PrefabParentObject: {fileID: 6567868, guid: 4436f5b141ae4074082424c09570acb3,
    type: 2}
  m_PrefabInternal: {fileID: 1564541708}
  m_GameObject: {fileID: 724482308}
  m_Material: {fileID: 0}
  m_IsTrigger: 0
  m_Enabled: 1
  serializedVersion: 2
  m_Size: {x: 0.68447095, y: 1.182688, z: 0.713956}
  m_Center: {x: 0.009795487, y: 0.39134398, z: 0.013170019}
--- !u!23 &724482310
MeshRenderer:
  m_ObjectHideFlags: 0
  m_PrefabParentObject: {fileID: 2331258, guid: 4436f5b141ae4074082424c09570acb3,
    type: 2}
  m_PrefabInternal: {fileID: 1564541708}
  m_GameObject: {fileID: 724482308}
  m_Enabled: 1
  m_CastShadows: 1
  m_ReceiveShadows: 1
  m_MotionVectors: 1
  m_LightProbeUsage: 1
  m_ReflectionProbeUsage: 1
  m_Materials:
  - {fileID: 2100000, guid: 76a6016f10bc74842bb69b1a1a32753e, type: 2}
  m_StaticBatchInfo:
    firstSubMesh: 0
    subMeshCount: 0
  m_StaticBatchRoot: {fileID: 0}
  m_ProbeAnchor: {fileID: 0}
  m_LightProbeVolumeOverride: {fileID: 0}
  m_ScaleInLightmap: 1
  m_PreserveUVs: 0
  m_IgnoreNormalsForChartDetection: 0
  m_ImportantGI: 0
  m_SelectedEditorRenderState: 3
  m_MinimumChartSize: 4
  m_AutoUVMaxDistance: 0.5
  m_AutoUVMaxAngle: 89
  m_LightmapParameters: {fileID: 0}
  m_SortingLayerID: 0
  m_SortingLayer: 0
  m_SortingOrder: 0
--- !u!33 &724482311
MeshFilter:
  m_ObjectHideFlags: 0
  m_PrefabParentObject: {fileID: 3305038, guid: 4436f5b141ae4074082424c09570acb3,
    type: 2}
  m_PrefabInternal: {fileID: 1564541708}
  m_GameObject: {fileID: 724482308}
  m_Mesh: {fileID: 4300000, guid: 28642c7f20a1598488cefd7f00b94865, type: 3}
--- !u!1001 &732830951
Prefab:
  m_ObjectHideFlags: 0
  serializedVersion: 2
  m_Modification:
    m_TransformParent: {fileID: 1075876286}
    m_Modifications:
    - target: {fileID: 481390, guid: 9991b226736b6964782c28d07cef8881, type: 2}
      propertyPath: m_LocalPosition.x
      value: 6
      objectReference: {fileID: 0}
    - target: {fileID: 481390, guid: 9991b226736b6964782c28d07cef8881, type: 2}
      propertyPath: m_LocalPosition.y
      value: 0
      objectReference: {fileID: 0}
    - target: {fileID: 481390, guid: 9991b226736b6964782c28d07cef8881, type: 2}
      propertyPath: m_LocalPosition.z
      value: 2
      objectReference: {fileID: 0}
    - target: {fileID: 481390, guid: 9991b226736b6964782c28d07cef8881, type: 2}
      propertyPath: m_LocalRotation.x
      value: 0
      objectReference: {fileID: 0}
    - target: {fileID: 481390, guid: 9991b226736b6964782c28d07cef8881, type: 2}
      propertyPath: m_LocalRotation.y
      value: 0
      objectReference: {fileID: 0}
    - target: {fileID: 481390, guid: 9991b226736b6964782c28d07cef8881, type: 2}
      propertyPath: m_LocalRotation.z
      value: 0
      objectReference: {fileID: 0}
    - target: {fileID: 481390, guid: 9991b226736b6964782c28d07cef8881, type: 2}
      propertyPath: m_LocalRotation.w
      value: 1
      objectReference: {fileID: 0}
    - target: {fileID: 481390, guid: 9991b226736b6964782c28d07cef8881, type: 2}
      propertyPath: m_RootOrder
      value: 7
      objectReference: {fileID: 0}
    m_RemovedComponents: []
  m_ParentPrefab: {fileID: 100100000, guid: 9991b226736b6964782c28d07cef8881, type: 2}
  m_RootGameObject: {fileID: 1169459097}
  m_IsPrefabParent: 0
--- !u!4 &732830952
Transform:
  m_ObjectHideFlags: 0
  m_PrefabParentObject: {fileID: 481390, guid: 9991b226736b6964782c28d07cef8881, type: 2}
  m_PrefabInternal: {fileID: 732830951}
  m_GameObject: {fileID: 1169459097}
  m_LocalRotation: {x: 0, y: 0, z: 0, w: 1}
  m_LocalPosition: {x: 6, y: 0, z: 2}
  m_LocalScale: {x: 1, y: 1, z: 1}
  m_Children: []
  m_Father: {fileID: 1075876286}
  m_RootOrder: 7
  m_LocalEulerAnglesHint: {x: 0, y: 0, z: 0}
--- !u!1 &846525821
GameObject:
  m_ObjectHideFlags: 0
  m_PrefabParentObject: {fileID: 156434, guid: 1643ab6b0160ab240a595db4bfb21c56, type: 2}
  m_PrefabInternal: {fileID: 903298912}
  serializedVersion: 5
  m_Component:
  - component: {fileID: 903298913}
  - component: {fileID: 846525824}
  - component: {fileID: 846525823}
  - component: {fileID: 846525822}
  m_Layer: 0
  m_Name: rock_j
  m_TagString: Untagged
  m_Icon: {fileID: 0}
  m_NavMeshLayer: 0
  m_StaticEditorFlags: 4294967295
  m_IsActive: 1
--- !u!65 &846525822
BoxCollider:
  m_ObjectHideFlags: 0
  m_PrefabParentObject: {fileID: 6590200, guid: 1643ab6b0160ab240a595db4bfb21c56,
    type: 2}
  m_PrefabInternal: {fileID: 903298912}
  m_GameObject: {fileID: 846525821}
  m_Material: {fileID: 0}
  m_IsTrigger: 0
  m_Enabled: 1
  serializedVersion: 2
  m_Size: {x: 1.0930309, y: 2.3134341, z: 1.017988}
  m_Center: {x: 0.030946523, y: 0.956717, z: 0.033107027}
--- !u!23 &846525823
MeshRenderer:
  m_ObjectHideFlags: 0
  m_PrefabParentObject: {fileID: 2349128, guid: 1643ab6b0160ab240a595db4bfb21c56,
    type: 2}
  m_PrefabInternal: {fileID: 903298912}
  m_GameObject: {fileID: 846525821}
  m_Enabled: 1
  m_CastShadows: 1
  m_ReceiveShadows: 1
  m_MotionVectors: 1
  m_LightProbeUsage: 1
  m_ReflectionProbeUsage: 1
  m_Materials:
  - {fileID: 2100000, guid: 76a6016f10bc74842bb69b1a1a32753e, type: 2}
  m_StaticBatchInfo:
    firstSubMesh: 0
    subMeshCount: 0
  m_StaticBatchRoot: {fileID: 0}
  m_ProbeAnchor: {fileID: 0}
  m_LightProbeVolumeOverride: {fileID: 0}
  m_ScaleInLightmap: 1
  m_PreserveUVs: 0
  m_IgnoreNormalsForChartDetection: 0
  m_ImportantGI: 0
  m_SelectedEditorRenderState: 3
  m_MinimumChartSize: 4
  m_AutoUVMaxDistance: 0.5
  m_AutoUVMaxAngle: 89
  m_LightmapParameters: {fileID: 0}
  m_SortingLayerID: 0
  m_SortingLayer: 0
  m_SortingOrder: 0
--- !u!33 &846525824
MeshFilter:
  m_ObjectHideFlags: 0
  m_PrefabParentObject: {fileID: 3310106, guid: 1643ab6b0160ab240a595db4bfb21c56,
    type: 2}
  m_PrefabInternal: {fileID: 903298912}
  m_GameObject: {fileID: 846525821}
  m_Mesh: {fileID: 4300000, guid: 93726671bc06c184ba6a85739484322a, type: 3}
--- !u!1 &852092241
GameObject:
  m_ObjectHideFlags: 0
  m_PrefabParentObject: {fileID: 157690, guid: d93ec03b51f37fd4d905a60a08a4fbbc, type: 2}
  m_PrefabInternal: {fileID: 18339982}
  serializedVersion: 5
  m_Component:
  - component: {fileID: 18339983}
  - component: {fileID: 852092244}
  - component: {fileID: 852092243}
  - component: {fileID: 852092242}
  m_Layer: 0
  m_Name: rock_a
  m_TagString: Untagged
  m_Icon: {fileID: 0}
  m_NavMeshLayer: 0
  m_StaticEditorFlags: 4294967295
  m_IsActive: 1
--- !u!65 &852092242
BoxCollider:
  m_ObjectHideFlags: 0
  m_PrefabParentObject: {fileID: 6577722, guid: d93ec03b51f37fd4d905a60a08a4fbbc,
    type: 2}
  m_PrefabInternal: {fileID: 18339982}
  m_GameObject: {fileID: 852092241}
  m_Material: {fileID: 0}
  m_IsTrigger: 0
  m_Enabled: 1
  serializedVersion: 2
  m_Size: {x: 0.619383, y: 1.235084, z: 0.6735929}
  m_Center: {x: 0.034164503, y: 0.417542, z: 0.041753486}
--- !u!23 &852092243
MeshRenderer:
  m_ObjectHideFlags: 0
  m_PrefabParentObject: {fileID: 2329910, guid: d93ec03b51f37fd4d905a60a08a4fbbc,
    type: 2}
  m_PrefabInternal: {fileID: 18339982}
  m_GameObject: {fileID: 852092241}
  m_Enabled: 1
  m_CastShadows: 1
  m_ReceiveShadows: 1
  m_MotionVectors: 1
  m_LightProbeUsage: 1
  m_ReflectionProbeUsage: 1
  m_Materials:
  - {fileID: 2100000, guid: 76a6016f10bc74842bb69b1a1a32753e, type: 2}
  m_StaticBatchInfo:
    firstSubMesh: 0
    subMeshCount: 0
  m_StaticBatchRoot: {fileID: 0}
  m_ProbeAnchor: {fileID: 0}
  m_LightProbeVolumeOverride: {fileID: 0}
  m_ScaleInLightmap: 1
  m_PreserveUVs: 0
  m_IgnoreNormalsForChartDetection: 0
  m_ImportantGI: 0
  m_SelectedEditorRenderState: 3
  m_MinimumChartSize: 4
  m_AutoUVMaxDistance: 0.5
  m_AutoUVMaxAngle: 89
  m_LightmapParameters: {fileID: 0}
  m_SortingLayerID: 0
  m_SortingLayer: 0
  m_SortingOrder: 0
--- !u!33 &852092244
MeshFilter:
  m_ObjectHideFlags: 0
  m_PrefabParentObject: {fileID: 3344886, guid: d93ec03b51f37fd4d905a60a08a4fbbc,
    type: 2}
  m_PrefabInternal: {fileID: 18339982}
  m_GameObject: {fileID: 852092241}
  m_Mesh: {fileID: 4300000, guid: bec7b0c0a9837ba49a11c88f26ce8841, type: 3}
--- !u!1001 &903298912
Prefab:
  m_ObjectHideFlags: 0
  serializedVersion: 2
  m_Modification:
    m_TransformParent: {fileID: 1075876286}
    m_Modifications:
    - target: {fileID: 422286, guid: 1643ab6b0160ab240a595db4bfb21c56, type: 2}
      propertyPath: m_LocalPosition.x
      value: 2
      objectReference: {fileID: 0}
    - target: {fileID: 422286, guid: 1643ab6b0160ab240a595db4bfb21c56, type: 2}
      propertyPath: m_LocalPosition.y
      value: 0
      objectReference: {fileID: 0}
    - target: {fileID: 422286, guid: 1643ab6b0160ab240a595db4bfb21c56, type: 2}
      propertyPath: m_LocalPosition.z
      value: 4
      objectReference: {fileID: 0}
    - target: {fileID: 422286, guid: 1643ab6b0160ab240a595db4bfb21c56, type: 2}
      propertyPath: m_LocalRotation.x
      value: 0
      objectReference: {fileID: 0}
    - target: {fileID: 422286, guid: 1643ab6b0160ab240a595db4bfb21c56, type: 2}
      propertyPath: m_LocalRotation.y
      value: 0
      objectReference: {fileID: 0}
    - target: {fileID: 422286, guid: 1643ab6b0160ab240a595db4bfb21c56, type: 2}
      propertyPath: m_LocalRotation.z
      value: 0
      objectReference: {fileID: 0}
    - target: {fileID: 422286, guid: 1643ab6b0160ab240a595db4bfb21c56, type: 2}
      propertyPath: m_LocalRotation.w
      value: 1
      objectReference: {fileID: 0}
    - target: {fileID: 422286, guid: 1643ab6b0160ab240a595db4bfb21c56, type: 2}
      propertyPath: m_RootOrder
      value: 9
      objectReference: {fileID: 0}
    m_RemovedComponents: []
  m_ParentPrefab: {fileID: 100100000, guid: 1643ab6b0160ab240a595db4bfb21c56, type: 2}
  m_RootGameObject: {fileID: 846525821}
  m_IsPrefabParent: 0
--- !u!4 &903298913
Transform:
  m_ObjectHideFlags: 0
  m_PrefabParentObject: {fileID: 422286, guid: 1643ab6b0160ab240a595db4bfb21c56, type: 2}
  m_PrefabInternal: {fileID: 903298912}
  m_GameObject: {fileID: 846525821}
  m_LocalRotation: {x: 0, y: 0, z: 0, w: 1}
  m_LocalPosition: {x: 2, y: 0, z: 4}
  m_LocalScale: {x: 1, y: 1, z: 1}
  m_Children: []
  m_Father: {fileID: 1075876286}
  m_RootOrder: 9
  m_LocalEulerAnglesHint: {x: 0, y: 0, z: 0}
--- !u!1 &929871547
GameObject:
  m_ObjectHideFlags: 0
  m_PrefabParentObject: {fileID: 139350, guid: de863afb481be364ea04e5a347f5967f, type: 2}
  m_PrefabInternal: {fileID: 1739799301}
  serializedVersion: 5
  m_Component:
  - component: {fileID: 1739799302}
  - component: {fileID: 929871550}
  - component: {fileID: 929871549}
  - component: {fileID: 929871548}
  m_Layer: 0
  m_Name: rock_n
  m_TagString: Untagged
  m_Icon: {fileID: 0}
  m_NavMeshLayer: 0
  m_StaticEditorFlags: 4294967295
  m_IsActive: 1
--- !u!65 &929871548
BoxCollider:
  m_ObjectHideFlags: 0
  m_PrefabParentObject: {fileID: 6566510, guid: de863afb481be364ea04e5a347f5967f,
    type: 2}
  m_PrefabInternal: {fileID: 1739799301}
  m_GameObject: {fileID: 929871547}
  m_Material: {fileID: 0}
  m_IsTrigger: 0
  m_Enabled: 1
  serializedVersion: 2
  m_Size: {x: 1.573624, y: 2.268154, z: 1.7554309}
  m_Center: {x: 0.009427011, y: 0.9340769, z: 0.07168454}
--- !u!23 &929871549
MeshRenderer:
  m_ObjectHideFlags: 0
  m_PrefabParentObject: {fileID: 2320982, guid: de863afb481be364ea04e5a347f5967f,
    type: 2}
  m_PrefabInternal: {fileID: 1739799301}
  m_GameObject: {fileID: 929871547}
  m_Enabled: 1
  m_CastShadows: 1
  m_ReceiveShadows: 1
  m_MotionVectors: 1
  m_LightProbeUsage: 1
  m_ReflectionProbeUsage: 1
  m_Materials:
  - {fileID: 2100000, guid: 76a6016f10bc74842bb69b1a1a32753e, type: 2}
  m_StaticBatchInfo:
    firstSubMesh: 0
    subMeshCount: 0
  m_StaticBatchRoot: {fileID: 0}
  m_ProbeAnchor: {fileID: 0}
  m_LightProbeVolumeOverride: {fileID: 0}
  m_ScaleInLightmap: 1
  m_PreserveUVs: 0
  m_IgnoreNormalsForChartDetection: 0
  m_ImportantGI: 0
  m_SelectedEditorRenderState: 3
  m_MinimumChartSize: 4
  m_AutoUVMaxDistance: 0.5
  m_AutoUVMaxAngle: 89
  m_LightmapParameters: {fileID: 0}
  m_SortingLayerID: 0
  m_SortingLayer: 0
  m_SortingOrder: 0
--- !u!33 &929871550
MeshFilter:
  m_ObjectHideFlags: 0
  m_PrefabParentObject: {fileID: 3380074, guid: de863afb481be364ea04e5a347f5967f,
    type: 2}
  m_PrefabInternal: {fileID: 1739799301}
  m_GameObject: {fileID: 929871547}
  m_Mesh: {fileID: 4300000, guid: be97290b187d1824fb4b2d06b9505f81, type: 3}
--- !u!1 &954290726
GameObject:
  m_ObjectHideFlags: 0
  m_PrefabParentObject: {fileID: 144092, guid: d18bc5c5a34308844a5c5684e48318db, type: 2}
  m_PrefabInternal: {fileID: 1917887212}
  serializedVersion: 5
  m_Component:
  - component: {fileID: 1917887213}
  - component: {fileID: 954290729}
  - component: {fileID: 954290728}
  - component: {fileID: 954290727}
  m_Layer: 0
  m_Name: rock_l
  m_TagString: Untagged
  m_Icon: {fileID: 0}
  m_NavMeshLayer: 0
  m_StaticEditorFlags: 4294967295
  m_IsActive: 1
--- !u!65 &954290727
BoxCollider:
  m_ObjectHideFlags: 0
  m_PrefabParentObject: {fileID: 6551476, guid: d18bc5c5a34308844a5c5684e48318db,
    type: 2}
  m_PrefabInternal: {fileID: 1917887212}
  m_GameObject: {fileID: 954290726}
  m_Material: {fileID: 0}
  m_IsTrigger: 0
  m_Enabled: 1
  serializedVersion: 2
  m_Size: {x: 1.042974, y: 2.193072, z: 1.077385}
  m_Center: {x: -0.03465298, y: 0.896536, z: 0.070189476}
--- !u!23 &954290728
MeshRenderer:
  m_ObjectHideFlags: 0
  m_PrefabParentObject: {fileID: 2364162, guid: d18bc5c5a34308844a5c5684e48318db,
    type: 2}
  m_PrefabInternal: {fileID: 1917887212}
  m_GameObject: {fileID: 954290726}
  m_Enabled: 1
  m_CastShadows: 1
  m_ReceiveShadows: 1
  m_MotionVectors: 1
  m_LightProbeUsage: 1
  m_ReflectionProbeUsage: 1
  m_Materials:
  - {fileID: 2100000, guid: 76a6016f10bc74842bb69b1a1a32753e, type: 2}
  m_StaticBatchInfo:
    firstSubMesh: 0
    subMeshCount: 0
  m_StaticBatchRoot: {fileID: 0}
  m_ProbeAnchor: {fileID: 0}
  m_LightProbeVolumeOverride: {fileID: 0}
  m_ScaleInLightmap: 1
  m_PreserveUVs: 0
  m_IgnoreNormalsForChartDetection: 0
  m_ImportantGI: 0
  m_SelectedEditorRenderState: 3
  m_MinimumChartSize: 4
  m_AutoUVMaxDistance: 0.5
  m_AutoUVMaxAngle: 89
  m_LightmapParameters: {fileID: 0}
  m_SortingLayerID: 0
  m_SortingLayer: 0
  m_SortingOrder: 0
--- !u!33 &954290729
MeshFilter:
  m_ObjectHideFlags: 0
  m_PrefabParentObject: {fileID: 3363316, guid: d18bc5c5a34308844a5c5684e48318db,
    type: 2}
  m_PrefabInternal: {fileID: 1917887212}
  m_GameObject: {fileID: 954290726}
  m_Mesh: {fileID: 4300000, guid: 1e64ea19b4d014c4ab33b8345425c9e3, type: 3}
--- !u!1001 &991969649
Prefab:
  m_ObjectHideFlags: 0
  serializedVersion: 2
  m_Modification:
    m_TransformParent: {fileID: 1075876286}
    m_Modifications:
    - target: {fileID: 493472, guid: ca5c291357dc8c54bbb0f485cdccdf17, type: 2}
      propertyPath: m_LocalPosition.x
      value: 4
      objectReference: {fileID: 0}
    - target: {fileID: 493472, guid: ca5c291357dc8c54bbb0f485cdccdf17, type: 2}
      propertyPath: m_LocalPosition.y
      value: 0
      objectReference: {fileID: 0}
    - target: {fileID: 493472, guid: ca5c291357dc8c54bbb0f485cdccdf17, type: 2}
      propertyPath: m_LocalPosition.z
      value: 6
      objectReference: {fileID: 0}
    - target: {fileID: 493472, guid: ca5c291357dc8c54bbb0f485cdccdf17, type: 2}
      propertyPath: m_LocalRotation.x
      value: 0
      objectReference: {fileID: 0}
    - target: {fileID: 493472, guid: ca5c291357dc8c54bbb0f485cdccdf17, type: 2}
      propertyPath: m_LocalRotation.y
      value: 0
      objectReference: {fileID: 0}
    - target: {fileID: 493472, guid: ca5c291357dc8c54bbb0f485cdccdf17, type: 2}
      propertyPath: m_LocalRotation.z
      value: 0
      objectReference: {fileID: 0}
    - target: {fileID: 493472, guid: ca5c291357dc8c54bbb0f485cdccdf17, type: 2}
      propertyPath: m_LocalRotation.w
      value: 1
      objectReference: {fileID: 0}
    - target: {fileID: 493472, guid: ca5c291357dc8c54bbb0f485cdccdf17, type: 2}
      propertyPath: m_RootOrder
      value: 14
      objectReference: {fileID: 0}
    m_RemovedComponents: []
  m_ParentPrefab: {fileID: 100100000, guid: ca5c291357dc8c54bbb0f485cdccdf17, type: 2}
  m_RootGameObject: {fileID: 1043127616}
  m_IsPrefabParent: 0
--- !u!4 &991969650
Transform:
  m_ObjectHideFlags: 0
  m_PrefabParentObject: {fileID: 493472, guid: ca5c291357dc8c54bbb0f485cdccdf17, type: 2}
  m_PrefabInternal: {fileID: 991969649}
  m_GameObject: {fileID: 1043127616}
  m_LocalRotation: {x: 0, y: 0, z: 0, w: 1}
  m_LocalPosition: {x: 4, y: 0, z: 6}
  m_LocalScale: {x: 1, y: 1, z: 1}
  m_Children: []
  m_Father: {fileID: 1075876286}
  m_RootOrder: 14
  m_LocalEulerAnglesHint: {x: 0, y: 0, z: 0}
--- !u!1 &1043127616
GameObject:
  m_ObjectHideFlags: 0
  m_PrefabParentObject: {fileID: 171860, guid: ca5c291357dc8c54bbb0f485cdccdf17, type: 2}
  m_PrefabInternal: {fileID: 991969649}
  serializedVersion: 5
  m_Component:
  - component: {fileID: 991969650}
  - component: {fileID: 1043127619}
  - component: {fileID: 1043127618}
  - component: {fileID: 1043127617}
  m_Layer: 0
  m_Name: rock_o
  m_TagString: Untagged
  m_Icon: {fileID: 0}
  m_NavMeshLayer: 0
  m_StaticEditorFlags: 4294967295
  m_IsActive: 1
--- !u!65 &1043127617
BoxCollider:
  m_ObjectHideFlags: 0
  m_PrefabParentObject: {fileID: 6573540, guid: ca5c291357dc8c54bbb0f485cdccdf17,
    type: 2}
  m_PrefabInternal: {fileID: 991969649}
  m_GameObject: {fileID: 1043127616}
  m_Material: {fileID: 0}
  m_IsTrigger: 0
  m_Enabled: 1
  serializedVersion: 2
  m_Size: {x: 1.7363069, y: 2.323628, z: 1.7973529}
  m_Center: {x: 0.119671494, y: 0.9618139, z: -0.026981473}
--- !u!23 &1043127618
MeshRenderer:
  m_ObjectHideFlags: 0
  m_PrefabParentObject: {fileID: 2358730, guid: ca5c291357dc8c54bbb0f485cdccdf17,
    type: 2}
  m_PrefabInternal: {fileID: 991969649}
  m_GameObject: {fileID: 1043127616}
  m_Enabled: 1
  m_CastShadows: 1
  m_ReceiveShadows: 1
  m_MotionVectors: 1
  m_LightProbeUsage: 1
  m_ReflectionProbeUsage: 1
  m_Materials:
  - {fileID: 2100000, guid: 76a6016f10bc74842bb69b1a1a32753e, type: 2}
  m_StaticBatchInfo:
    firstSubMesh: 0
    subMeshCount: 0
  m_StaticBatchRoot: {fileID: 0}
  m_ProbeAnchor: {fileID: 0}
  m_LightProbeVolumeOverride: {fileID: 0}
  m_ScaleInLightmap: 1
  m_PreserveUVs: 0
  m_IgnoreNormalsForChartDetection: 0
  m_ImportantGI: 0
  m_SelectedEditorRenderState: 3
  m_MinimumChartSize: 4
  m_AutoUVMaxDistance: 0.5
  m_AutoUVMaxAngle: 89
  m_LightmapParameters: {fileID: 0}
  m_SortingLayerID: 0
  m_SortingLayer: 0
  m_SortingOrder: 0
--- !u!33 &1043127619
MeshFilter:
  m_ObjectHideFlags: 0
  m_PrefabParentObject: {fileID: 3309278, guid: ca5c291357dc8c54bbb0f485cdccdf17,
    type: 2}
  m_PrefabInternal: {fileID: 991969649}
  m_GameObject: {fileID: 1043127616}
  m_Mesh: {fileID: 4300000, guid: 8047fe64bb2ad034db828801e87a3a02, type: 3}
--- !u!1 &1075876285
GameObject:
  m_ObjectHideFlags: 0
  m_PrefabParentObject: {fileID: 0}
  m_PrefabInternal: {fileID: 0}
  serializedVersion: 5
  m_Component:
  - component: {fileID: 1075876286}
  m_Layer: 0
  m_Name: rocks
  m_TagString: Untagged
  m_Icon: {fileID: 0}
  m_NavMeshLayer: 0
  m_StaticEditorFlags: 0
  m_IsActive: 1
--- !u!4 &1075876286
Transform:
  m_ObjectHideFlags: 0
  m_PrefabParentObject: {fileID: 0}
  m_PrefabInternal: {fileID: 0}
  m_GameObject: {fileID: 1075876285}
  m_LocalRotation: {x: 0, y: 0, z: 0, w: 1}
  m_LocalPosition: {x: 0, y: 0, z: 0}
  m_LocalScale: {x: 1, y: 1, z: 1}
  m_Children:
  - {fileID: 18339983}
  - {fileID: 1564541710}
  - {fileID: 1407276776}
  - {fileID: 231947883}
  - {fileID: 1455511922}
  - {fileID: 2128971830}
  - {fileID: 1925551411}
  - {fileID: 732830952}
  - {fileID: 1545503307}
  - {fileID: 903298913}
  - {fileID: 1262636575}
  - {fileID: 1917887213}
  - {fileID: 255644572}
  - {fileID: 1739799302}
  - {fileID: 991969650}
  - {fileID: 710605154}
  m_Father: {fileID: 0}
  m_RootOrder: 1
  m_LocalEulerAnglesHint: {x: 0, y: 0, z: 0}
--- !u!1 &1169459097
GameObject:
  m_ObjectHideFlags: 0
  m_PrefabParentObject: {fileID: 154622, guid: 9991b226736b6964782c28d07cef8881, type: 2}
  m_PrefabInternal: {fileID: 732830951}
  serializedVersion: 5
  m_Component:
  - component: {fileID: 732830952}
  - component: {fileID: 1169459100}
  - component: {fileID: 1169459099}
  - component: {fileID: 1169459098}
  m_Layer: 0
  m_Name: rock_h
  m_TagString: Untagged
  m_Icon: {fileID: 0}
  m_NavMeshLayer: 0
  m_StaticEditorFlags: 4294967295
  m_IsActive: 1
--- !u!65 &1169459098
BoxCollider:
  m_ObjectHideFlags: 0
  m_PrefabParentObject: {fileID: 6554028, guid: 9991b226736b6964782c28d07cef8881,
    type: 2}
  m_PrefabInternal: {fileID: 732830951}
  m_GameObject: {fileID: 1169459097}
  m_Material: {fileID: 0}
  m_IsTrigger: 0
  m_Enabled: 1
  serializedVersion: 2
  m_Size: {x: 0.97309804, y: 1.2424729, z: 0.98610896}
  m_Center: {x: -0.012785003, y: 0.42123643, z: -0.053100497}
--- !u!23 &1169459099
MeshRenderer:
  m_ObjectHideFlags: 0
  m_PrefabParentObject: {fileID: 2353034, guid: 9991b226736b6964782c28d07cef8881,
    type: 2}
  m_PrefabInternal: {fileID: 732830951}
  m_GameObject: {fileID: 1169459097}
  m_Enabled: 1
  m_CastShadows: 1
  m_ReceiveShadows: 1
  m_MotionVectors: 1
  m_LightProbeUsage: 1
  m_ReflectionProbeUsage: 1
  m_Materials:
  - {fileID: 2100000, guid: 76a6016f10bc74842bb69b1a1a32753e, type: 2}
  m_StaticBatchInfo:
    firstSubMesh: 0
    subMeshCount: 0
  m_StaticBatchRoot: {fileID: 0}
  m_ProbeAnchor: {fileID: 0}
  m_LightProbeVolumeOverride: {fileID: 0}
  m_ScaleInLightmap: 1
  m_PreserveUVs: 0
  m_IgnoreNormalsForChartDetection: 0
  m_ImportantGI: 0
  m_SelectedEditorRenderState: 3
  m_MinimumChartSize: 4
  m_AutoUVMaxDistance: 0.5
  m_AutoUVMaxAngle: 89
  m_LightmapParameters: {fileID: 0}
  m_SortingLayerID: 0
  m_SortingLayer: 0
  m_SortingOrder: 0
--- !u!33 &1169459100
MeshFilter:
  m_ObjectHideFlags: 0
  m_PrefabParentObject: {fileID: 3383232, guid: 9991b226736b6964782c28d07cef8881,
    type: 2}
  m_PrefabInternal: {fileID: 732830951}
  m_GameObject: {fileID: 1169459097}
  m_Mesh: {fileID: 4300000, guid: 826cbc77d62dbc4418e186b44dc66935, type: 3}
--- !u!1 &1257122426
GameObject:
  m_ObjectHideFlags: 0
  m_PrefabParentObject: {fileID: 190226, guid: 50673ce029549f04d8a30a3886523aad, type: 2}
  m_PrefabInternal: {fileID: 2128971829}
  serializedVersion: 5
  m_Component:
  - component: {fileID: 2128971830}
  - component: {fileID: 1257122429}
  - component: {fileID: 1257122428}
  - component: {fileID: 1257122427}
  m_Layer: 0
  m_Name: rock_f
  m_TagString: Untagged
  m_Icon: {fileID: 0}
  m_NavMeshLayer: 0
  m_StaticEditorFlags: 4294967295
  m_IsActive: 1
--- !u!65 &1257122427
BoxCollider:
  m_ObjectHideFlags: 0
  m_PrefabParentObject: {fileID: 6594526, guid: 50673ce029549f04d8a30a3886523aad,
    type: 2}
  m_PrefabInternal: {fileID: 2128971829}
  m_GameObject: {fileID: 1257122426}
  m_Material: {fileID: 0}
  m_IsTrigger: 0
  m_Enabled: 1
  serializedVersion: 2
  m_Size: {x: 0.891011, y: 1.071393, z: 0.816171}
  m_Center: {x: -0.009281501, y: 0.33569652, z: 0.044110507}
--- !u!23 &1257122428
MeshRenderer:
  m_ObjectHideFlags: 0
  m_PrefabParentObject: {fileID: 2392414, guid: 50673ce029549f04d8a30a3886523aad,
    type: 2}
  m_PrefabInternal: {fileID: 2128971829}
  m_GameObject: {fileID: 1257122426}
  m_Enabled: 1
  m_CastShadows: 1
  m_ReceiveShadows: 1
  m_MotionVectors: 1
  m_LightProbeUsage: 1
  m_ReflectionProbeUsage: 1
  m_Materials:
  - {fileID: 2100000, guid: 76a6016f10bc74842bb69b1a1a32753e, type: 2}
  m_StaticBatchInfo:
    firstSubMesh: 0
    subMeshCount: 0
  m_StaticBatchRoot: {fileID: 0}
  m_ProbeAnchor: {fileID: 0}
  m_LightProbeVolumeOverride: {fileID: 0}
  m_ScaleInLightmap: 1
  m_PreserveUVs: 0
  m_IgnoreNormalsForChartDetection: 0
  m_ImportantGI: 0
  m_SelectedEditorRenderState: 3
  m_MinimumChartSize: 4
  m_AutoUVMaxDistance: 0.5
  m_AutoUVMaxAngle: 89
  m_LightmapParameters: {fileID: 0}
  m_SortingLayerID: 0
  m_SortingLayer: 0
  m_SortingOrder: 0
--- !u!33 &1257122429
MeshFilter:
  m_ObjectHideFlags: 0
  m_PrefabParentObject: {fileID: 3371978, guid: 50673ce029549f04d8a30a3886523aad,
    type: 2}
  m_PrefabInternal: {fileID: 2128971829}
  m_GameObject: {fileID: 1257122426}
  m_Mesh: {fileID: 4300000, guid: 18825f1b116444645925daec351e81ba, type: 3}
--- !u!1001 &1262636574
Prefab:
  m_ObjectHideFlags: 0
  serializedVersion: 2
  m_Modification:
    m_TransformParent: {fileID: 1075876286}
    m_Modifications:
    - target: {fileID: 436498, guid: bb7975b4ee3bc3f40b9b2faf7e4636a2, type: 2}
      propertyPath: m_LocalPosition.x
      value: 4
      objectReference: {fileID: 0}
    - target: {fileID: 436498, guid: bb7975b4ee3bc3f40b9b2faf7e4636a2, type: 2}
      propertyPath: m_LocalPosition.y
      value: 0
      objectReference: {fileID: 0}
    - target: {fileID: 436498, guid: bb7975b4ee3bc3f40b9b2faf7e4636a2, type: 2}
      propertyPath: m_LocalPosition.z
      value: 4
      objectReference: {fileID: 0}
    - target: {fileID: 436498, guid: bb7975b4ee3bc3f40b9b2faf7e4636a2, type: 2}
      propertyPath: m_LocalRotation.x
      value: 0
      objectReference: {fileID: 0}
    - target: {fileID: 436498, guid: bb7975b4ee3bc3f40b9b2faf7e4636a2, type: 2}
      propertyPath: m_LocalRotation.y
      value: 0
      objectReference: {fileID: 0}
    - target: {fileID: 436498, guid: bb7975b4ee3bc3f40b9b2faf7e4636a2, type: 2}
      propertyPath: m_LocalRotation.z
      value: 0
      objectReference: {fileID: 0}
    - target: {fileID: 436498, guid: bb7975b4ee3bc3f40b9b2faf7e4636a2, type: 2}
      propertyPath: m_LocalRotation.w
      value: 1
      objectReference: {fileID: 0}
    - target: {fileID: 436498, guid: bb7975b4ee3bc3f40b9b2faf7e4636a2, type: 2}
      propertyPath: m_RootOrder
      value: 10
      objectReference: {fileID: 0}
    m_RemovedComponents: []
  m_ParentPrefab: {fileID: 100100000, guid: bb7975b4ee3bc3f40b9b2faf7e4636a2, type: 2}
  m_RootGameObject: {fileID: 1618955943}
  m_IsPrefabParent: 0
--- !u!4 &1262636575
Transform:
  m_ObjectHideFlags: 0
  m_PrefabParentObject: {fileID: 436498, guid: bb7975b4ee3bc3f40b9b2faf7e4636a2, type: 2}
  m_PrefabInternal: {fileID: 1262636574}
  m_GameObject: {fileID: 1618955943}
  m_LocalRotation: {x: 0, y: 0, z: 0, w: 1}
  m_LocalPosition: {x: 4, y: 0, z: 4}
  m_LocalScale: {x: 1, y: 1, z: 1}
  m_Children: []
  m_Father: {fileID: 1075876286}
  m_RootOrder: 10
  m_LocalEulerAnglesHint: {x: 0, y: 0, z: 0}
--- !u!1 &1405364934
GameObject:
  m_ObjectHideFlags: 0
  m_PrefabParentObject: {fileID: 139234, guid: 9838f503122e261409e6efaf72c2a6b2, type: 2}
  m_PrefabInternal: {fileID: 193259061}
  serializedVersion: 5
  m_Component:
  - component: {fileID: 1405364935}
  - component: {fileID: 1405364936}
  m_Layer: 0
  m_Name: light_secondary
  m_TagString: Untagged
  m_Icon: {fileID: 0}
  m_NavMeshLayer: 0
  m_StaticEditorFlags: 4294967295
  m_IsActive: 1
--- !u!4 &1405364935
Transform:
  m_ObjectHideFlags: 0
  m_PrefabParentObject: {fileID: 405246, guid: 9838f503122e261409e6efaf72c2a6b2, type: 2}
  m_PrefabInternal: {fileID: 193259061}
  m_GameObject: {fileID: 1405364934}
  m_LocalRotation: {x: 0.22194561, y: -0.8054907, z: 0.18408974, w: 0.51772183}
  m_LocalPosition: {x: 0, y: 0, z: 0}
  m_LocalScale: {x: 1, y: 1, z: 1}
  m_Children: []
  m_Father: {fileID: 1858142667}
  m_RootOrder: 1
  m_LocalEulerAnglesHint: {x: 0, y: 0, z: 0}
--- !u!108 &1405364936
Light:
  m_ObjectHideFlags: 0
  m_PrefabParentObject: {fileID: 10805726, guid: 9838f503122e261409e6efaf72c2a6b2,
    type: 2}
  m_PrefabInternal: {fileID: 193259061}
  m_GameObject: {fileID: 1405364934}
  m_Enabled: 1
  serializedVersion: 8
  m_Type: 1
  m_Color: {r: 0.8392157, g: 0.9866937, b: 1, a: 1}
  m_Intensity: 0.5
  m_Range: 10
  m_SpotAngle: 30
  m_CookieSize: 10
  m_Shadows:
    m_Type: 0
    m_Resolution: -1
    m_CustomResolution: -1
    m_Strength: 1
    m_Bias: 0.05
    m_NormalBias: 0.4
    m_NearPlane: 0.2
  m_Cookie: {fileID: 0}
  m_DrawHalo: 0
  m_Flare: {fileID: 0}
  m_RenderMode: 0
  m_CullingMask:
    serializedVersion: 2
    m_Bits: 4294967295
  m_Lightmapping: 4
  m_AreaSize: {x: 1, y: 1}
  m_BounceIntensity: 1
  m_FalloffTable:
    m_Table[0]: 0
    m_Table[1]: 0
    m_Table[2]: 0
    m_Table[3]: 0
    m_Table[4]: 0
    m_Table[5]: 0
    m_Table[6]: 0
    m_Table[7]: 0
    m_Table[8]: 0
    m_Table[9]: 0
    m_Table[10]: 0
    m_Table[11]: 0
    m_Table[12]: 0
  m_ColorTemperature: 6570
  m_UseColorTemperature: 0
  m_ShadowRadius: 0
  m_ShadowAngle: 0
--- !u!1001 &1407276775
Prefab:
  m_ObjectHideFlags: 0
  serializedVersion: 2
  m_Modification:
    m_TransformParent: {fileID: 1075876286}
    m_Modifications:
    - target: {fileID: 408656, guid: 6a67aaef2f6b30443ac78ea7d762a346, type: 2}
      propertyPath: m_LocalPosition.x
      value: 4
      objectReference: {fileID: 0}
    - target: {fileID: 408656, guid: 6a67aaef2f6b30443ac78ea7d762a346, type: 2}
      propertyPath: m_LocalPosition.y
      value: 0
      objectReference: {fileID: 0}
    - target: {fileID: 408656, guid: 6a67aaef2f6b30443ac78ea7d762a346, type: 2}
      propertyPath: m_LocalPosition.z
      value: 0
      objectReference: {fileID: 0}
    - target: {fileID: 408656, guid: 6a67aaef2f6b30443ac78ea7d762a346, type: 2}
      propertyPath: m_LocalRotation.x
      value: 0
      objectReference: {fileID: 0}
    - target: {fileID: 408656, guid: 6a67aaef2f6b30443ac78ea7d762a346, type: 2}
      propertyPath: m_LocalRotation.y
      value: 0
      objectReference: {fileID: 0}
    - target: {fileID: 408656, guid: 6a67aaef2f6b30443ac78ea7d762a346, type: 2}
      propertyPath: m_LocalRotation.z
      value: 0
      objectReference: {fileID: 0}
    - target: {fileID: 408656, guid: 6a67aaef2f6b30443ac78ea7d762a346, type: 2}
      propertyPath: m_LocalRotation.w
      value: 1
      objectReference: {fileID: 0}
    - target: {fileID: 408656, guid: 6a67aaef2f6b30443ac78ea7d762a346, type: 2}
      propertyPath: m_RootOrder
      value: 2
      objectReference: {fileID: 0}
    m_RemovedComponents: []
  m_ParentPrefab: {fileID: 100100000, guid: 6a67aaef2f6b30443ac78ea7d762a346, type: 2}
  m_RootGameObject: {fileID: 279510161}
  m_IsPrefabParent: 0
--- !u!4 &1407276776
Transform:
  m_ObjectHideFlags: 0
  m_PrefabParentObject: {fileID: 408656, guid: 6a67aaef2f6b30443ac78ea7d762a346, type: 2}
  m_PrefabInternal: {fileID: 1407276775}
  m_GameObject: {fileID: 279510161}
  m_LocalRotation: {x: 0, y: 0, z: 0, w: 1}
  m_LocalPosition: {x: 4, y: 0, z: 0}
  m_LocalScale: {x: 1, y: 1, z: 1}
  m_Children: []
  m_Father: {fileID: 1075876286}
  m_RootOrder: 2
  m_LocalEulerAnglesHint: {x: 0, y: 0, z: 0}
--- !u!1001 &1455511921
Prefab:
  m_ObjectHideFlags: 0
  serializedVersion: 2
  m_Modification:
    m_TransformParent: {fileID: 1075876286}
    m_Modifications:
    - target: {fileID: 416522, guid: bee8d047e16101c438fb33382ab66935, type: 2}
      propertyPath: m_LocalPosition.x
      value: 0
      objectReference: {fileID: 0}
    - target: {fileID: 416522, guid: bee8d047e16101c438fb33382ab66935, type: 2}
      propertyPath: m_LocalPosition.y
      value: 0
      objectReference: {fileID: 0}
    - target: {fileID: 416522, guid: bee8d047e16101c438fb33382ab66935, type: 2}
      propertyPath: m_LocalPosition.z
      value: 2
      objectReference: {fileID: 0}
    - target: {fileID: 416522, guid: bee8d047e16101c438fb33382ab66935, type: 2}
      propertyPath: m_LocalRotation.x
      value: 0
      objectReference: {fileID: 0}
    - target: {fileID: 416522, guid: bee8d047e16101c438fb33382ab66935, type: 2}
      propertyPath: m_LocalRotation.y
      value: 0
      objectReference: {fileID: 0}
    - target: {fileID: 416522, guid: bee8d047e16101c438fb33382ab66935, type: 2}
      propertyPath: m_LocalRotation.z
      value: 0
      objectReference: {fileID: 0}
    - target: {fileID: 416522, guid: bee8d047e16101c438fb33382ab66935, type: 2}
      propertyPath: m_LocalRotation.w
      value: 1
      objectReference: {fileID: 0}
    - target: {fileID: 416522, guid: bee8d047e16101c438fb33382ab66935, type: 2}
      propertyPath: m_RootOrder
      value: 4
      objectReference: {fileID: 0}
    m_RemovedComponents: []
  m_ParentPrefab: {fileID: 100100000, guid: bee8d047e16101c438fb33382ab66935, type: 2}
  m_RootGameObject: {fileID: 151134103}
  m_IsPrefabParent: 0
--- !u!4 &1455511922
Transform:
  m_ObjectHideFlags: 0
  m_PrefabParentObject: {fileID: 416522, guid: bee8d047e16101c438fb33382ab66935, type: 2}
  m_PrefabInternal: {fileID: 1455511921}
  m_GameObject: {fileID: 151134103}
  m_LocalRotation: {x: 0, y: 0, z: 0, w: 1}
  m_LocalPosition: {x: 0, y: 0, z: 2}
  m_LocalScale: {x: 1, y: 1, z: 1}
  m_Children: []
  m_Father: {fileID: 1075876286}
  m_RootOrder: 4
  m_LocalEulerAnglesHint: {x: 0, y: 0, z: 0}
--- !u!1 &1533971285
GameObject:
  m_ObjectHideFlags: 0
  m_PrefabParentObject: {fileID: 182100, guid: 7505f79cb619cfd4ebb6af0704ad4260, type: 2}
  m_PrefabInternal: {fileID: 710605153}
  serializedVersion: 5
  m_Component:
  - component: {fileID: 710605154}
  - component: {fileID: 1533971288}
  - component: {fileID: 1533971287}
  - component: {fileID: 1533971286}
  m_Layer: 0
  m_Name: rock_p
  m_TagString: Untagged
  m_Icon: {fileID: 0}
  m_NavMeshLayer: 0
  m_StaticEditorFlags: 4294967295
  m_IsActive: 1
--- !u!65 &1533971286
BoxCollider:
  m_ObjectHideFlags: 0
  m_PrefabParentObject: {fileID: 6591330, guid: 7505f79cb619cfd4ebb6af0704ad4260,
    type: 2}
  m_PrefabInternal: {fileID: 710605153}
  m_GameObject: {fileID: 1533971285}
  m_Material: {fileID: 0}
  m_IsTrigger: 0
  m_Enabled: 1
  serializedVersion: 2
  m_Size: {x: 1.5164369, y: 2.17221, z: 1.467186}
  m_Center: {x: -0.04007548, y: 0.886105, z: -0.0048939586}
--- !u!23 &1533971287
MeshRenderer:
  m_ObjectHideFlags: 0
  m_PrefabParentObject: {fileID: 2358500, guid: 7505f79cb619cfd4ebb6af0704ad4260,
    type: 2}
  m_PrefabInternal: {fileID: 710605153}
  m_GameObject: {fileID: 1533971285}
  m_Enabled: 1
  m_CastShadows: 1
  m_ReceiveShadows: 1
  m_MotionVectors: 1
  m_LightProbeUsage: 1
  m_ReflectionProbeUsage: 1
  m_Materials:
  - {fileID: 2100000, guid: 76a6016f10bc74842bb69b1a1a32753e, type: 2}
  m_StaticBatchInfo:
    firstSubMesh: 0
    subMeshCount: 0
  m_StaticBatchRoot: {fileID: 0}
  m_ProbeAnchor: {fileID: 0}
  m_LightProbeVolumeOverride: {fileID: 0}
  m_ScaleInLightmap: 1
  m_PreserveUVs: 0
  m_IgnoreNormalsForChartDetection: 0
  m_ImportantGI: 0
  m_SelectedEditorRenderState: 3
  m_MinimumChartSize: 4
  m_AutoUVMaxDistance: 0.5
  m_AutoUVMaxAngle: 89
  m_LightmapParameters: {fileID: 0}
  m_SortingLayerID: 0
  m_SortingLayer: 0
  m_SortingOrder: 0
--- !u!33 &1533971288
MeshFilter:
  m_ObjectHideFlags: 0
  m_PrefabParentObject: {fileID: 3340648, guid: 7505f79cb619cfd4ebb6af0704ad4260,
    type: 2}
  m_PrefabInternal: {fileID: 710605153}
  m_GameObject: {fileID: 1533971285}
  m_Mesh: {fileID: 4300000, guid: 02b8195cc92dcfe4da1770d5c860a657, type: 3}
--- !u!1001 &1545503306
Prefab:
  m_ObjectHideFlags: 0
  serializedVersion: 2
  m_Modification:
    m_TransformParent: {fileID: 1075876286}
    m_Modifications:
    - target: {fileID: 449506, guid: c04bdda845329ad4ca2003872a1e4b82, type: 2}
      propertyPath: m_LocalPosition.x
      value: 0
      objectReference: {fileID: 0}
    - target: {fileID: 449506, guid: c04bdda845329ad4ca2003872a1e4b82, type: 2}
      propertyPath: m_LocalPosition.y
      value: 0
      objectReference: {fileID: 0}
    - target: {fileID: 449506, guid: c04bdda845329ad4ca2003872a1e4b82, type: 2}
      propertyPath: m_LocalPosition.z
      value: 4
      objectReference: {fileID: 0}
    - target: {fileID: 449506, guid: c04bdda845329ad4ca2003872a1e4b82, type: 2}
      propertyPath: m_LocalRotation.x
      value: 0
      objectReference: {fileID: 0}
    - target: {fileID: 449506, guid: c04bdda845329ad4ca2003872a1e4b82, type: 2}
      propertyPath: m_LocalRotation.y
      value: 0
      objectReference: {fileID: 0}
    - target: {fileID: 449506, guid: c04bdda845329ad4ca2003872a1e4b82, type: 2}
      propertyPath: m_LocalRotation.z
      value: 0
      objectReference: {fileID: 0}
    - target: {fileID: 449506, guid: c04bdda845329ad4ca2003872a1e4b82, type: 2}
      propertyPath: m_LocalRotation.w
      value: 1
      objectReference: {fileID: 0}
    - target: {fileID: 449506, guid: c04bdda845329ad4ca2003872a1e4b82, type: 2}
      propertyPath: m_RootOrder
      value: 8
      objectReference: {fileID: 0}
    m_RemovedComponents: []
  m_ParentPrefab: {fileID: 100100000, guid: c04bdda845329ad4ca2003872a1e4b82, type: 2}
  m_RootGameObject: {fileID: 2012646179}
  m_IsPrefabParent: 0
--- !u!4 &1545503307
Transform:
  m_ObjectHideFlags: 0
  m_PrefabParentObject: {fileID: 449506, guid: c04bdda845329ad4ca2003872a1e4b82, type: 2}
  m_PrefabInternal: {fileID: 1545503306}
  m_GameObject: {fileID: 2012646179}
  m_LocalRotation: {x: 0, y: 0, z: 0, w: 1}
  m_LocalPosition: {x: 0, y: 0, z: 4}
  m_LocalScale: {x: 1, y: 1, z: 1}
  m_Children: []
  m_Father: {fileID: 1075876286}
  m_RootOrder: 8
  m_LocalEulerAnglesHint: {x: 0, y: 0, z: 0}
--- !u!1001 &1564541708
Prefab:
  m_ObjectHideFlags: 0
  serializedVersion: 2
  m_Modification:
    m_TransformParent: {fileID: 1075876286}
    m_Modifications:
    - target: {fileID: 440648, guid: 4436f5b141ae4074082424c09570acb3, type: 2}
      propertyPath: m_LocalPosition.x
      value: 2
      objectReference: {fileID: 0}
    - target: {fileID: 440648, guid: 4436f5b141ae4074082424c09570acb3, type: 2}
      propertyPath: m_LocalPosition.y
      value: 0
      objectReference: {fileID: 0}
    - target: {fileID: 440648, guid: 4436f5b141ae4074082424c09570acb3, type: 2}
      propertyPath: m_LocalPosition.z
      value: 0
      objectReference: {fileID: 0}
    - target: {fileID: 440648, guid: 4436f5b141ae4074082424c09570acb3, type: 2}
      propertyPath: m_LocalRotation.x
      value: 0
      objectReference: {fileID: 0}
    - target: {fileID: 440648, guid: 4436f5b141ae4074082424c09570acb3, type: 2}
      propertyPath: m_LocalRotation.y
      value: 0
      objectReference: {fileID: 0}
    - target: {fileID: 440648, guid: 4436f5b141ae4074082424c09570acb3, type: 2}
      propertyPath: m_LocalRotation.z
      value: 0
      objectReference: {fileID: 0}
    - target: {fileID: 440648, guid: 4436f5b141ae4074082424c09570acb3, type: 2}
      propertyPath: m_LocalRotation.w
      value: 1
      objectReference: {fileID: 0}
    - target: {fileID: 440648, guid: 4436f5b141ae4074082424c09570acb3, type: 2}
      propertyPath: m_RootOrder
      value: 1
      objectReference: {fileID: 0}
    m_RemovedComponents: []
  m_ParentPrefab: {fileID: 100100000, guid: 4436f5b141ae4074082424c09570acb3, type: 2}
  m_RootGameObject: {fileID: 724482308}
  m_IsPrefabParent: 0
--- !u!4 &1564541710
Transform:
  m_ObjectHideFlags: 0
  m_PrefabParentObject: {fileID: 440648, guid: 4436f5b141ae4074082424c09570acb3, type: 2}
  m_PrefabInternal: {fileID: 1564541708}
  m_GameObject: {fileID: 724482308}
  m_LocalRotation: {x: 0, y: 0, z: 0, w: 1}
  m_LocalPosition: {x: 2, y: 0, z: 0}
  m_LocalScale: {x: 1, y: 1, z: 1}
  m_Children: []
  m_Father: {fileID: 1075876286}
  m_RootOrder: 1
  m_LocalEulerAnglesHint: {x: 0, y: 0, z: 0}
--- !u!1 &1596253182
GameObject:
  m_ObjectHideFlags: 0
  m_PrefabParentObject: {fileID: 101208, guid: e13d89ce323009a4a8a53d439b0a74e4, type: 2}
  m_PrefabInternal: {fileID: 1925551410}
  serializedVersion: 5
  m_Component:
  - component: {fileID: 1925551411}
  - component: {fileID: 1596253185}
  - component: {fileID: 1596253184}
  - component: {fileID: 1596253183}
  m_Layer: 0
  m_Name: rock_g
  m_TagString: Untagged
  m_Icon: {fileID: 0}
  m_NavMeshLayer: 0
  m_StaticEditorFlags: 4294967295
  m_IsActive: 1
--- !u!65 &1596253183
BoxCollider:
  m_ObjectHideFlags: 0
  m_PrefabParentObject: {fileID: 6599904, guid: e13d89ce323009a4a8a53d439b0a74e4,
    type: 2}
  m_PrefabInternal: {fileID: 1925551410}
  m_GameObject: {fileID: 1596253182}
  m_Material: {fileID: 0}
  m_IsTrigger: 0
  m_Enabled: 1
  serializedVersion: 2
  m_Size: {x: 0.96442294, y: 1.0863, z: 0.944848}
  m_Center: {x: 0.017378494, y: 0.34314996, z: -0.057345003}
--- !u!23 &1596253184
MeshRenderer:
  m_ObjectHideFlags: 0
  m_PrefabParentObject: {fileID: 2378238, guid: e13d89ce323009a4a8a53d439b0a74e4,
    type: 2}
  m_PrefabInternal: {fileID: 1925551410}
  m_GameObject: {fileID: 1596253182}
  m_Enabled: 1
  m_CastShadows: 1
  m_ReceiveShadows: 1
  m_MotionVectors: 1
  m_LightProbeUsage: 1
  m_ReflectionProbeUsage: 1
  m_Materials:
  - {fileID: 2100000, guid: 76a6016f10bc74842bb69b1a1a32753e, type: 2}
  m_StaticBatchInfo:
    firstSubMesh: 0
    subMeshCount: 0
  m_StaticBatchRoot: {fileID: 0}
  m_ProbeAnchor: {fileID: 0}
  m_LightProbeVolumeOverride: {fileID: 0}
  m_ScaleInLightmap: 1
  m_PreserveUVs: 0
  m_IgnoreNormalsForChartDetection: 0
  m_ImportantGI: 0
  m_SelectedEditorRenderState: 3
  m_MinimumChartSize: 4
  m_AutoUVMaxDistance: 0.5
  m_AutoUVMaxAngle: 89
  m_LightmapParameters: {fileID: 0}
  m_SortingLayerID: 0
  m_SortingLayer: 0
  m_SortingOrder: 0
--- !u!33 &1596253185
MeshFilter:
  m_ObjectHideFlags: 0
  m_PrefabParentObject: {fileID: 3326438, guid: e13d89ce323009a4a8a53d439b0a74e4,
    type: 2}
  m_PrefabInternal: {fileID: 1925551410}
  m_GameObject: {fileID: 1596253182}
  m_Mesh: {fileID: 4300000, guid: e4b66841754e4ed438f2b3bc5e615425, type: 3}
--- !u!1 &1603946218
GameObject:
  m_ObjectHideFlags: 0
  m_PrefabParentObject: {fileID: 0}
  m_PrefabInternal: {fileID: 0}
  serializedVersion: 5
  m_Component:
  - component: {fileID: 1603946219}
  m_Layer: 0
  m_Name: environment
  m_TagString: Untagged
  m_Icon: {fileID: 0}
  m_NavMeshLayer: 0
  m_StaticEditorFlags: 0
  m_IsActive: 1
--- !u!4 &1603946219
Transform:
  m_ObjectHideFlags: 0
  m_PrefabParentObject: {fileID: 0}
  m_PrefabInternal: {fileID: 0}
  m_GameObject: {fileID: 1603946218}
  m_LocalRotation: {x: 0, y: 0, z: 0, w: 1}
  m_LocalPosition: {x: 0, y: 0, z: 0}
  m_LocalScale: {x: 1, y: 1, z: 1}
  m_Children:
  - {fileID: 597986482}
  - {fileID: 1629676749}
  - {fileID: 1858142667}
  m_Father: {fileID: 0}
  m_RootOrder: 0
  m_LocalEulerAnglesHint: {x: 0, y: 0, z: 0}
--- !u!1 &1618955943
GameObject:
  m_ObjectHideFlags: 0
  m_PrefabParentObject: {fileID: 114716, guid: bb7975b4ee3bc3f40b9b2faf7e4636a2, type: 2}
  m_PrefabInternal: {fileID: 1262636574}
  serializedVersion: 5
  m_Component:
  - component: {fileID: 1262636575}
  - component: {fileID: 1618955946}
  - component: {fileID: 1618955945}
  - component: {fileID: 1618955944}
  m_Layer: 0
  m_Name: rock_k
  m_TagString: Untagged
  m_Icon: {fileID: 0}
  m_NavMeshLayer: 0
  m_StaticEditorFlags: 4294967295
  m_IsActive: 1
--- !u!65 &1618955944
BoxCollider:
  m_ObjectHideFlags: 0
  m_PrefabParentObject: {fileID: 6564642, guid: bb7975b4ee3bc3f40b9b2faf7e4636a2,
    type: 2}
  m_PrefabInternal: {fileID: 1262636574}
  m_GameObject: {fileID: 1618955943}
  m_Material: {fileID: 0}
  m_IsTrigger: 0
  m_Enabled: 1
  serializedVersion: 2
  m_Size: {x: 0.870893, y: 2.266862, z: 0.900185}
  m_Center: {x: 0.0470175, y: 0.9334309, z: -0.024246514}
--- !u!23 &1618955945
MeshRenderer:
  m_ObjectHideFlags: 0
  m_PrefabParentObject: {fileID: 2373192, guid: bb7975b4ee3bc3f40b9b2faf7e4636a2,
    type: 2}
  m_PrefabInternal: {fileID: 1262636574}
  m_GameObject: {fileID: 1618955943}
  m_Enabled: 1
  m_CastShadows: 1
  m_ReceiveShadows: 1
  m_MotionVectors: 1
  m_LightProbeUsage: 1
  m_ReflectionProbeUsage: 1
  m_Materials:
  - {fileID: 2100000, guid: 76a6016f10bc74842bb69b1a1a32753e, type: 2}
  m_StaticBatchInfo:
    firstSubMesh: 0
    subMeshCount: 0
  m_StaticBatchRoot: {fileID: 0}
  m_ProbeAnchor: {fileID: 0}
  m_LightProbeVolumeOverride: {fileID: 0}
  m_ScaleInLightmap: 1
  m_PreserveUVs: 0
  m_IgnoreNormalsForChartDetection: 0
  m_ImportantGI: 0
  m_SelectedEditorRenderState: 3
  m_MinimumChartSize: 4
  m_AutoUVMaxDistance: 0.5
  m_AutoUVMaxAngle: 89
  m_LightmapParameters: {fileID: 0}
  m_SortingLayerID: 0
  m_SortingLayer: 0
  m_SortingOrder: 0
--- !u!33 &1618955946
MeshFilter:
  m_ObjectHideFlags: 0
  m_PrefabParentObject: {fileID: 3397102, guid: bb7975b4ee3bc3f40b9b2faf7e4636a2,
    type: 2}
  m_PrefabInternal: {fileID: 1262636574}
  m_GameObject: {fileID: 1618955943}
  m_Mesh: {fileID: 4300000, guid: a03f69509415d8147aebaf0f50552c7d, type: 3}
--- !u!1001 &1629676748
Prefab:
  m_ObjectHideFlags: 0
  serializedVersion: 2
  m_Modification:
    m_TransformParent: {fileID: 1603946219}
    m_Modifications:
    - target: {fileID: 400000, guid: 42ab0f5c5332fef489b547c33416feda, type: 3}
      propertyPath: m_LocalPosition.x
      value: 0
      objectReference: {fileID: 0}
    - target: {fileID: 400000, guid: 42ab0f5c5332fef489b547c33416feda, type: 3}
      propertyPath: m_LocalPosition.y
      value: 0
      objectReference: {fileID: 0}
    - target: {fileID: 400000, guid: 42ab0f5c5332fef489b547c33416feda, type: 3}
      propertyPath: m_LocalPosition.z
      value: 0
      objectReference: {fileID: 0}
    - target: {fileID: 400000, guid: 42ab0f5c5332fef489b547c33416feda, type: 3}
      propertyPath: m_LocalRotation.x
      value: 0
      objectReference: {fileID: 0}
    - target: {fileID: 400000, guid: 42ab0f5c5332fef489b547c33416feda, type: 3}
      propertyPath: m_LocalRotation.y
      value: 0
      objectReference: {fileID: 0}
    - target: {fileID: 400000, guid: 42ab0f5c5332fef489b547c33416feda, type: 3}
      propertyPath: m_LocalRotation.z
      value: 0
      objectReference: {fileID: 0}
    - target: {fileID: 400000, guid: 42ab0f5c5332fef489b547c33416feda, type: 3}
      propertyPath: m_LocalRotation.w
      value: 1
      objectReference: {fileID: 0}
    - target: {fileID: 400000, guid: 42ab0f5c5332fef489b547c33416feda, type: 3}
      propertyPath: m_RootOrder
      value: 1
      objectReference: {fileID: 0}
    - target: {fileID: 2300000, guid: 42ab0f5c5332fef489b547c33416feda, type: 3}
      propertyPath: m_Materials.Array.data[0]
      value: 
      objectReference: {fileID: 2100000, guid: 3e9f0db9ec9f43b48be4e019a749f8be, type: 2}
    - target: {fileID: 100000, guid: 42ab0f5c5332fef489b547c33416feda, type: 3}
      propertyPath: m_IsActive
      value: 1
      objectReference: {fileID: 0}
    m_RemovedComponents: []
  m_ParentPrefab: {fileID: 100100000, guid: 42ab0f5c5332fef489b547c33416feda, type: 3}
  m_RootGameObject: {fileID: 206849734}
  m_IsPrefabParent: 0
--- !u!4 &1629676749
Transform:
  m_ObjectHideFlags: 0
  m_PrefabParentObject: {fileID: 400000, guid: 42ab0f5c5332fef489b547c33416feda, type: 3}
  m_PrefabInternal: {fileID: 1629676748}
  m_GameObject: {fileID: 206849734}
  m_LocalRotation: {x: 0, y: 0, z: 0, w: 1}
  m_LocalPosition: {x: 0, y: 0, z: 0}
  m_LocalScale: {x: 1, y: 1, z: 1}
  m_Children: []
  m_Father: {fileID: 1603946219}
  m_RootOrder: 1
  m_LocalEulerAnglesHint: {x: 0, y: 0, z: 0}
--- !u!1001 &1739799301
Prefab:
  m_ObjectHideFlags: 0
  serializedVersion: 2
  m_Modification:
    m_TransformParent: {fileID: 1075876286}
    m_Modifications:
    - target: {fileID: 437022, guid: de863afb481be364ea04e5a347f5967f, type: 2}
      propertyPath: m_LocalPosition.x
      value: 2
      objectReference: {fileID: 0}
    - target: {fileID: 437022, guid: de863afb481be364ea04e5a347f5967f, type: 2}
      propertyPath: m_LocalPosition.y
      value: 0
      objectReference: {fileID: 0}
    - target: {fileID: 437022, guid: de863afb481be364ea04e5a347f5967f, type: 2}
      propertyPath: m_LocalPosition.z
      value: 6
      objectReference: {fileID: 0}
    - target: {fileID: 437022, guid: de863afb481be364ea04e5a347f5967f, type: 2}
      propertyPath: m_LocalRotation.x
      value: 0
      objectReference: {fileID: 0}
    - target: {fileID: 437022, guid: de863afb481be364ea04e5a347f5967f, type: 2}
      propertyPath: m_LocalRotation.y
      value: 0
      objectReference: {fileID: 0}
    - target: {fileID: 437022, guid: de863afb481be364ea04e5a347f5967f, type: 2}
      propertyPath: m_LocalRotation.z
      value: 0
      objectReference: {fileID: 0}
    - target: {fileID: 437022, guid: de863afb481be364ea04e5a347f5967f, type: 2}
      propertyPath: m_LocalRotation.w
      value: 1
      objectReference: {fileID: 0}
    - target: {fileID: 437022, guid: de863afb481be364ea04e5a347f5967f, type: 2}
      propertyPath: m_RootOrder
      value: 13
      objectReference: {fileID: 0}
    m_RemovedComponents: []
  m_ParentPrefab: {fileID: 100100000, guid: de863afb481be364ea04e5a347f5967f, type: 2}
  m_RootGameObject: {fileID: 929871547}
  m_IsPrefabParent: 0
--- !u!4 &1739799302
Transform:
  m_ObjectHideFlags: 0
  m_PrefabParentObject: {fileID: 437022, guid: de863afb481be364ea04e5a347f5967f, type: 2}
  m_PrefabInternal: {fileID: 1739799301}
  m_GameObject: {fileID: 929871547}
  m_LocalRotation: {x: 0, y: 0, z: 0, w: 1}
  m_LocalPosition: {x: 2, y: 0, z: 6}
  m_LocalScale: {x: 1, y: 1, z: 1}
  m_Children: []
  m_Father: {fileID: 1075876286}
  m_RootOrder: 13
  m_LocalEulerAnglesHint: {x: 0, y: 0, z: 0}
--- !u!1 &1760287073
GameObject:
  m_ObjectHideFlags: 0
  m_PrefabParentObject: {fileID: 121022, guid: 1bbb9f65959851443977b14c98740663, type: 2}
  m_PrefabInternal: {fileID: 231947882}
  serializedVersion: 5
  m_Component:
  - component: {fileID: 231947883}
  - component: {fileID: 1760287076}
  - component: {fileID: 1760287075}
  - component: {fileID: 1760287074}
  m_Layer: 0
  m_Name: rock_d
  m_TagString: Untagged
  m_Icon: {fileID: 0}
  m_NavMeshLayer: 0
  m_StaticEditorFlags: 4294967295
  m_IsActive: 1
--- !u!65 &1760287074
BoxCollider:
  m_ObjectHideFlags: 0
  m_PrefabParentObject: {fileID: 6534524, guid: 1bbb9f65959851443977b14c98740663,
    type: 2}
  m_PrefabInternal: {fileID: 231947882}
  m_GameObject: {fileID: 1760287073}
  m_Material: {fileID: 0}
  m_IsTrigger: 0
  m_Enabled: 1
  serializedVersion: 2
  m_Size: {x: 0.687477, y: 1.267766, z: 0.719136}
  m_Center: {x: 0.0052045286, y: 0.43388298, z: 0.02671498}
--- !u!23 &1760287075
MeshRenderer:
  m_ObjectHideFlags: 0
  m_PrefabParentObject: {fileID: 2324456, guid: 1bbb9f65959851443977b14c98740663,
    type: 2}
  m_PrefabInternal: {fileID: 231947882}
  m_GameObject: {fileID: 1760287073}
  m_Enabled: 1
  m_CastShadows: 1
  m_ReceiveShadows: 1
  m_MotionVectors: 1
  m_LightProbeUsage: 1
  m_ReflectionProbeUsage: 1
  m_Materials:
  - {fileID: 2100000, guid: 76a6016f10bc74842bb69b1a1a32753e, type: 2}
  m_StaticBatchInfo:
    firstSubMesh: 0
    subMeshCount: 0
  m_StaticBatchRoot: {fileID: 0}
  m_ProbeAnchor: {fileID: 0}
  m_LightProbeVolumeOverride: {fileID: 0}
  m_ScaleInLightmap: 1
  m_PreserveUVs: 0
  m_IgnoreNormalsForChartDetection: 0
  m_ImportantGI: 0
  m_SelectedEditorRenderState: 3
  m_MinimumChartSize: 4
  m_AutoUVMaxDistance: 0.5
  m_AutoUVMaxAngle: 89
  m_LightmapParameters: {fileID: 0}
  m_SortingLayerID: 0
  m_SortingLayer: 0
  m_SortingOrder: 0
--- !u!33 &1760287076
MeshFilter:
  m_ObjectHideFlags: 0
  m_PrefabParentObject: {fileID: 3394986, guid: 1bbb9f65959851443977b14c98740663,
    type: 2}
  m_PrefabInternal: {fileID: 231947882}
  m_GameObject: {fileID: 1760287073}
  m_Mesh: {fileID: 4300000, guid: bd9b79329ba9dda488da003696edc754, type: 3}
--- !u!4 &1858142667
Transform:
  m_ObjectHideFlags: 0
  m_PrefabParentObject: {fileID: 494650, guid: 9838f503122e261409e6efaf72c2a6b2, type: 2}
  m_PrefabInternal: {fileID: 193259061}
  m_GameObject: {fileID: 1893912752}
  m_LocalRotation: {x: 0, y: 0, z: 0, w: 1}
  m_LocalPosition: {x: 0, y: 0, z: 0}
  m_LocalScale: {x: 1, y: 1, z: 1}
  m_Children:
  - {fileID: 226254628}
  - {fileID: 1405364935}
  - {fileID: 81728185}
  m_Father: {fileID: 1603946219}
  m_RootOrder: 2
  m_LocalEulerAnglesHint: {x: 0, y: 0, z: 0}
--- !u!1 &1893912752
GameObject:
  m_ObjectHideFlags: 0
  m_PrefabParentObject: {fileID: 145862, guid: 9838f503122e261409e6efaf72c2a6b2, type: 2}
  m_PrefabInternal: {fileID: 193259061}
  serializedVersion: 5
  m_Component:
  - component: {fileID: 1858142667}
  m_Layer: 0
  m_Name: light_rig
  m_TagString: Untagged
  m_Icon: {fileID: 0}
  m_NavMeshLayer: 0
  m_StaticEditorFlags: 4294967295
  m_IsActive: 1
--- !u!1001 &1917887212
Prefab:
  m_ObjectHideFlags: 0
  serializedVersion: 2
  m_Modification:
    m_TransformParent: {fileID: 1075876286}
    m_Modifications:
    - target: {fileID: 434652, guid: d18bc5c5a34308844a5c5684e48318db, type: 2}
      propertyPath: m_LocalPosition.x
      value: 6
      objectReference: {fileID: 0}
    - target: {fileID: 434652, guid: d18bc5c5a34308844a5c5684e48318db, type: 2}
      propertyPath: m_LocalPosition.y
      value: 0
      objectReference: {fileID: 0}
    - target: {fileID: 434652, guid: d18bc5c5a34308844a5c5684e48318db, type: 2}
      propertyPath: m_LocalPosition.z
      value: 4
      objectReference: {fileID: 0}
    - target: {fileID: 434652, guid: d18bc5c5a34308844a5c5684e48318db, type: 2}
      propertyPath: m_LocalRotation.x
      value: 0
      objectReference: {fileID: 0}
    - target: {fileID: 434652, guid: d18bc5c5a34308844a5c5684e48318db, type: 2}
      propertyPath: m_LocalRotation.y
      value: 0
      objectReference: {fileID: 0}
    - target: {fileID: 434652, guid: d18bc5c5a34308844a5c5684e48318db, type: 2}
      propertyPath: m_LocalRotation.z
      value: 0
      objectReference: {fileID: 0}
    - target: {fileID: 434652, guid: d18bc5c5a34308844a5c5684e48318db, type: 2}
      propertyPath: m_LocalRotation.w
      value: 1
      objectReference: {fileID: 0}
    - target: {fileID: 434652, guid: d18bc5c5a34308844a5c5684e48318db, type: 2}
      propertyPath: m_RootOrder
      value: 11
      objectReference: {fileID: 0}
    m_RemovedComponents: []
  m_ParentPrefab: {fileID: 100100000, guid: d18bc5c5a34308844a5c5684e48318db, type: 2}
  m_RootGameObject: {fileID: 954290726}
  m_IsPrefabParent: 0
--- !u!4 &1917887213
Transform:
  m_ObjectHideFlags: 0
  m_PrefabParentObject: {fileID: 434652, guid: d18bc5c5a34308844a5c5684e48318db, type: 2}
  m_PrefabInternal: {fileID: 1917887212}
  m_GameObject: {fileID: 954290726}
  m_LocalRotation: {x: 0, y: 0, z: 0, w: 1}
  m_LocalPosition: {x: 6, y: 0, z: 4}
  m_LocalScale: {x: 1, y: 1, z: 1}
  m_Children: []
  m_Father: {fileID: 1075876286}
  m_RootOrder: 11
  m_LocalEulerAnglesHint: {x: 0, y: 0, z: 0}
--- !u!1001 &1925551410
Prefab:
  m_ObjectHideFlags: 0
  serializedVersion: 2
  m_Modification:
    m_TransformParent: {fileID: 1075876286}
    m_Modifications:
    - target: {fileID: 404742, guid: e13d89ce323009a4a8a53d439b0a74e4, type: 2}
      propertyPath: m_LocalPosition.x
      value: 4
      objectReference: {fileID: 0}
    - target: {fileID: 404742, guid: e13d89ce323009a4a8a53d439b0a74e4, type: 2}
      propertyPath: m_LocalPosition.y
      value: 0
      objectReference: {fileID: 0}
    - target: {fileID: 404742, guid: e13d89ce323009a4a8a53d439b0a74e4, type: 2}
      propertyPath: m_LocalPosition.z
      value: 2
      objectReference: {fileID: 0}
    - target: {fileID: 404742, guid: e13d89ce323009a4a8a53d439b0a74e4, type: 2}
      propertyPath: m_LocalRotation.x
      value: 0
      objectReference: {fileID: 0}
    - target: {fileID: 404742, guid: e13d89ce323009a4a8a53d439b0a74e4, type: 2}
      propertyPath: m_LocalRotation.y
      value: 0
      objectReference: {fileID: 0}
    - target: {fileID: 404742, guid: e13d89ce323009a4a8a53d439b0a74e4, type: 2}
      propertyPath: m_LocalRotation.z
      value: 0
      objectReference: {fileID: 0}
    - target: {fileID: 404742, guid: e13d89ce323009a4a8a53d439b0a74e4, type: 2}
      propertyPath: m_LocalRotation.w
      value: 1
      objectReference: {fileID: 0}
    - target: {fileID: 404742, guid: e13d89ce323009a4a8a53d439b0a74e4, type: 2}
      propertyPath: m_RootOrder
      value: 6
      objectReference: {fileID: 0}
    m_RemovedComponents: []
  m_ParentPrefab: {fileID: 100100000, guid: e13d89ce323009a4a8a53d439b0a74e4, type: 2}
  m_RootGameObject: {fileID: 1596253182}
  m_IsPrefabParent: 0
--- !u!4 &1925551411
Transform:
  m_ObjectHideFlags: 0
  m_PrefabParentObject: {fileID: 404742, guid: e13d89ce323009a4a8a53d439b0a74e4, type: 2}
  m_PrefabInternal: {fileID: 1925551410}
  m_GameObject: {fileID: 1596253182}
  m_LocalRotation: {x: 0, y: 0, z: 0, w: 1}
  m_LocalPosition: {x: 4, y: 0, z: 2}
  m_LocalScale: {x: 1, y: 1, z: 1}
  m_Children: []
  m_Father: {fileID: 1075876286}
  m_RootOrder: 6
  m_LocalEulerAnglesHint: {x: 0, y: 0, z: 0}
--- !u!1 &2012646179
GameObject:
  m_ObjectHideFlags: 0
  m_PrefabParentObject: {fileID: 196428, guid: c04bdda845329ad4ca2003872a1e4b82, type: 2}
  m_PrefabInternal: {fileID: 1545503306}
  serializedVersion: 5
  m_Component:
  - component: {fileID: 1545503307}
  - component: {fileID: 2012646182}
  - component: {fileID: 2012646181}
  - component: {fileID: 2012646180}
  m_Layer: 0
  m_Name: rock_i
  m_TagString: Untagged
  m_Icon: {fileID: 0}
  m_NavMeshLayer: 0
  m_StaticEditorFlags: 4294967295
  m_IsActive: 1
--- !u!65 &2012646180
BoxCollider:
  m_ObjectHideFlags: 0
  m_PrefabParentObject: {fileID: 6570428, guid: c04bdda845329ad4ca2003872a1e4b82,
    type: 2}
  m_PrefabInternal: {fileID: 1545503306}
  m_GameObject: {fileID: 2012646179}
  m_Material: {fileID: 0}
  m_IsTrigger: 0
  m_Enabled: 1
  serializedVersion: 2
  m_Size: {x: 0.90391994, y: 2.240516, z: 1.05618}
  m_Center: {x: 0.011047006, y: 0.9202579, z: 0.002620995}
--- !u!23 &2012646181
MeshRenderer:
  m_ObjectHideFlags: 0
  m_PrefabParentObject: {fileID: 2367824, guid: c04bdda845329ad4ca2003872a1e4b82,
    type: 2}
  m_PrefabInternal: {fileID: 1545503306}
  m_GameObject: {fileID: 2012646179}
  m_Enabled: 1
  m_CastShadows: 1
  m_ReceiveShadows: 1
  m_MotionVectors: 1
  m_LightProbeUsage: 1
  m_ReflectionProbeUsage: 1
  m_Materials:
  - {fileID: 2100000, guid: 76a6016f10bc74842bb69b1a1a32753e, type: 2}
  m_StaticBatchInfo:
    firstSubMesh: 0
    subMeshCount: 0
  m_StaticBatchRoot: {fileID: 0}
  m_ProbeAnchor: {fileID: 0}
  m_LightProbeVolumeOverride: {fileID: 0}
  m_ScaleInLightmap: 1
  m_PreserveUVs: 0
  m_IgnoreNormalsForChartDetection: 0
  m_ImportantGI: 0
  m_SelectedEditorRenderState: 3
  m_MinimumChartSize: 4
  m_AutoUVMaxDistance: 0.5
  m_AutoUVMaxAngle: 89
  m_LightmapParameters: {fileID: 0}
  m_SortingLayerID: 0
  m_SortingLayer: 0
  m_SortingOrder: 0
--- !u!33 &2012646182
MeshFilter:
  m_ObjectHideFlags: 0
  m_PrefabParentObject: {fileID: 3306150, guid: c04bdda845329ad4ca2003872a1e4b82,
    type: 2}
  m_PrefabInternal: {fileID: 1545503306}
  m_GameObject: {fileID: 2012646179}
  m_Mesh: {fileID: 4300000, guid: 6ad2835734317d446b4fdcf875dbd656, type: 3}
--- !u!1001 &2128971829
Prefab:
  m_ObjectHideFlags: 0
  serializedVersion: 2
  m_Modification:
    m_TransformParent: {fileID: 1075876286}
    m_Modifications:
    - target: {fileID: 496350, guid: 50673ce029549f04d8a30a3886523aad, type: 2}
      propertyPath: m_LocalPosition.x
      value: 2
      objectReference: {fileID: 0}
    - target: {fileID: 496350, guid: 50673ce029549f04d8a30a3886523aad, type: 2}
      propertyPath: m_LocalPosition.y
      value: 0
      objectReference: {fileID: 0}
    - target: {fileID: 496350, guid: 50673ce029549f04d8a30a3886523aad, type: 2}
      propertyPath: m_LocalPosition.z
      value: 2
      objectReference: {fileID: 0}
    - target: {fileID: 496350, guid: 50673ce029549f04d8a30a3886523aad, type: 2}
      propertyPath: m_LocalRotation.x
      value: 0
      objectReference: {fileID: 0}
    - target: {fileID: 496350, guid: 50673ce029549f04d8a30a3886523aad, type: 2}
      propertyPath: m_LocalRotation.y
      value: 0
      objectReference: {fileID: 0}
    - target: {fileID: 496350, guid: 50673ce029549f04d8a30a3886523aad, type: 2}
      propertyPath: m_LocalRotation.z
      value: 0
      objectReference: {fileID: 0}
    - target: {fileID: 496350, guid: 50673ce029549f04d8a30a3886523aad, type: 2}
      propertyPath: m_LocalRotation.w
      value: 1
      objectReference: {fileID: 0}
    - target: {fileID: 496350, guid: 50673ce029549f04d8a30a3886523aad, type: 2}
      propertyPath: m_RootOrder
      value: 5
      objectReference: {fileID: 0}
    m_RemovedComponents: []
  m_ParentPrefab: {fileID: 100100000, guid: 50673ce029549f04d8a30a3886523aad, type: 2}
  m_RootGameObject: {fileID: 1257122426}
  m_IsPrefabParent: 0
--- !u!4 &2128971830
Transform:
  m_ObjectHideFlags: 0
  m_PrefabParentObject: {fileID: 496350, guid: 50673ce029549f04d8a30a3886523aad, type: 2}
  m_PrefabInternal: {fileID: 2128971829}
  m_GameObject: {fileID: 1257122426}
  m_LocalRotation: {x: 0, y: 0, z: 0, w: 1}
  m_LocalPosition: {x: 2, y: 0, z: 2}
  m_LocalScale: {x: 1, y: 1, z: 1}
  m_Children: []
  m_Father: {fileID: 1075876286}
  m_RootOrder: 5
  m_LocalEulerAnglesHint: {x: 0, y: 0, z: 0}
