%YAML 1.1
%TAG !u! tag:unity3d.com,2011:
--- !u!21 &2100000
Material:
  serializedVersion: 6
  m_ObjectHideFlags: 0
  m_PrefabParentObject: {fileID: 0}
  m_PrefabInternal: {fileID: 0}
  m_Name: TeleportPointInvalid
  m_Shader: {fileID: 4800000, guid: 787d7485aa6482341a9f55fa37fb84f1, type: 3}
  m_ShaderKeywords: S_SPECULAR_NONE S_UNLIT _ALPHABLEND_ON
  m_LightmapFlags: 5
  m_EnableInstancingVariants: 0
  m_DoubleSidedGI: 0
  m_CustomRenderQueue: -1
  stringTagMap:
    RenderType: Transparent
  disabledShaderPasses: []
  m_SavedProperties:
    serializedVersion: 3
    m_TexEnvs:
    - _BumpMap:
        m_Texture: {fileID: 0}
        m_Scale: {x: 1, y: 1}
        m_Offset: {x: 0, y: 0}
    - _DetailAlbedoMap:
        m_Texture: {fileID: 0}
        m_Scale: {x: 1, y: 1}
        m_Offset: {x: 0, y: 0}
    - _DetailMask:
        m_Texture: {fileID: 0}
        m_Scale: {x: 1, y: 1}
        m_Offset: {x: 0, y: 0}
    - _DetailNormalMap:
        m_Texture: {fileID: 0}
        m_Scale: {x: 1, y: 1}
        m_Offset: {x: 0, y: 0}
    - _EmissionMap:
        m_Texture: {fileID: 0}
        m_Scale: {x: 1, y: 1}
        m_Offset: {x: 0, y: 0}
    - _MainTex:
        m_Texture: {fileID: 2800000, guid: ebc38d834b57e9d4d992de0a5470615a, type: 3}
        m_Scale: {x: 1, y: 1}
        m_Offset: {x: 0, y: 0}
    - _MetallicGlossMap:
        m_Texture: {fileID: 0}
        m_Scale: {x: 1, y: 1}
        m_Offset: {x: 0, y: 0}
    - _OcclusionMap:
        m_Texture: {fileID: 0}
        m_Scale: {x: 1, y: 1}
        m_Offset: {x: 0, y: 0}
    - _ParallaxMap:
        m_Texture: {fileID: 0}
        m_Scale: {x: 1, y: 1}
        m_Offset: {x: 0, y: 0}
    - _SpecGlossMap:
        m_Texture: {fileID: 0}
        m_Scale: {x: 1, y: 1}
        m_Offset: {x: 0, y: 0}
    - g_tOverrideLightmap:
        m_Texture: {fileID: 0}
        m_Scale: {x: 1, y: 1}
        m_Offset: {x: 0, y: 0}
    m_Floats:
    - _BumpScale: 1
    - _Cutoff: 0.5
    - _Darken: 1
    - _DetailNormalMapScale: 1
    - _DstBlend: 10
    - _Glossiness: 0.5
    - _InvFade: 1
    - _Metallic: 0
    - _Mode: 2
    - _OcclusionStrength: 1
    - _OcclusionStrengthDirectDiffuse: 1
    - _OcclusionStrengthDirectSpecular: 1
    - _OcclusionStrengthIndirectDiffuse: 1
    - _OcclusionStrengthIndirectSpecular: 1
    - _Parallax: 0.02
    - _SeeThru: 1
    - _SpecularMode: 1
    - _SrcBlend: 5
    - _UVSec: 0
    - _ZWrite: 0
    - g_bReceiveShadows: 1
    - g_bUnlit: 1
    - g_bWorldAlignedTexture: 0
    - g_flCubeMapScalar: 1
    - g_flReflectanceBias: 0
    - g_flReflectanceMax: 1
    - g_flReflectanceMin: 0
    - g_flReflectanceScale: 1
    m_Colors:
    - _Color: {r: 1, g: 1, b: 1, a: 1}
    - _EmissionColor: {r: 0, g: 0, b: 0, a: 1}
    - _SpecColor: {r: 0.19999996, g: 0.19999996, b: 0.19999996, a: 1}
    - _TintColor: {r: 1, g: 0.13235295, b: 0.22210923, a: 0.578}
    - g_vWorldAlignedNormalTangentU: {r: -1, g: 0, b: 0, a: 0}
    - g_vWorldAlignedNormalTangentV: {r: 0, g: 0, b: 1, a: 0}
    - g_vWorldAlignedTextureNormal: {r: 0, g: 1, b: 0, a: 0}
    - g_vWorldAlignedTexturePosition: {r: 0, g: 0, b: 0, a: 0}
    - g_vWorldAlignedTextureSize: {r: 1, g: 1, b: 1, a: 0}
