%YAML 1.1
%TAG !u! tag:unity3d.com,2011:
--- !u!114 &11400000
MonoBehaviour:
  m_ObjectHideFlags: 0
  m_PrefabParentObject: {fileID: 0}
  m_PrefabInternal: {fileID: 0}
  m_GameObject: {fileID: 0}
  m_Enabled: 1
  m_EditorHideFlags: 0
  m_Script: {fileID: 11500000, guid: 8a3bdb2cd68f901469e7cc149151eb49, type: 3}
  m_Name: Post-Processing Profile_07
  m_EditorClassIdentifier: 
  debugViews:
    m_Enabled: 1
    m_Settings:
      mode: 0
      depth:
        scale: 1
      motionVectors:
        sourceOpacity: 1
        motionImageOpacity: 0
        motionImageAmplitude: 16
        motionVectorsOpacity: 1
        motionVectorsResolution: 24
        motionVectorsAmplitude: 64
  fog:
    m_Enabled: 1
    m_Settings:
      excludeSkybox: 1
  antialiasing:
    m_Enabled: 1
    m_Settings:
      method: 0
      fxaaSettings:
        preset: 3
      taaSettings:
        jitterSpread: 0.75
        sharpen: 0.3
        stationaryBlending: 0.95
        motionBlending: 0.85
  ambientOcclusion:
    m_Enabled: 1
    m_Settings:
      intensity: 0.2
      radius: 0.2
      sampleCount: 10
      downsampling: 0
      forceForwardCompatibility: 0
      ambientOnly: 0
      highPrecision: 0
  screenSpaceReflection:
    m_Enabled: 0
    m_Settings:
      reflection:
        blendType: 0
        reflectionQuality: 0
        maxDistance: 100
        iterationCount: 256
        stepSize: 5
        widthModifier: 2
        reflectionBlur: 1
        reflectBackfaces: 0
      intensity:
        reflectionMultiplier: 1.5
        fadeDistance: 100
        fresnelFade: 1
        fresnelFadePower: 1
      screenEdgeMask:
        intensity: 0.03
  depthOfField:
    m_Enabled: 1
    m_Settings:
      focusDistance: 10
      aperture: 0.5
      focalLength: 1
      useCameraFov: 1
      kernelSize: 1
  motionBlur:
    m_Enabled: 0
    m_Settings:
      shutterAngle: 270
      sampleCount: 10
      frameBlending: 0
  eyeAdaptation:
    m_Enabled: 1
    m_Settings:
      lowPercent: 45
      highPercent: 95
      minLuminance: -5
      maxLuminance: 1
      keyValue: 0.25
      dynamicKeyValue: 1
      adaptationType: 0
      speedUp: 2
      speedDown: 1
      logMin: -8
      logMax: 4
  bloom:
    m_Enabled: 1
    m_Settings:
      bloom:
        intensity: 0.05
        threshold: 1.5
        softKnee: 0.5
        radius: 5
        antiFlicker: 1
      lensDirt:
        texture: {fileID: 2800000, guid: 3884f7a2d04ffe8409ad9200b275896f, type: 3}
        intensity: 1
  colorGrading:
    m_Enabled: 1
    m_Settings:
      tonemapping:
        tonemapper: 1
        neutralBlackIn: 0.02
        neutralWhiteIn: 10
        neutralBlackOut: 0
        neutralWhiteOut: 10
        neutralWhiteLevel: 5.3
        neutralWhiteClip: 10
      basic:
        postExposure: 1
        temperature: 5
        tint: 0
        hueShift: 0
        saturation: 1.3
        contrast: 1.1
      channelMixer:
        red: {x: 1, y: 0, z: 0}
        green: {x: 0, y: 1, z: 0}
        blue: {x: 0, y: 0, z: 1}
        currentEditingChannel: 0
      colorWheels:
        mode: 0
        log:
          slope: {r: 1, g: 1, b: 1, a: 0}
          power: {r: 1, g: 1, b: 1, a: 0}
          offset: {r: 1, g: 1, b: 1, a: 0}
        linear:
          lift: {r: 1, g: 0.88463897, b: 0.8293474, a: 0}
          gamma: {r: 1, g: 1, b: 1, a: 0}
          gain: {r: 1, g: 1, b: 1, a: 0}
      curves:
        master:
          curve:
            serializedVersion: 2
            m_Curve:
            - serializedVersion: 2
              time: 0
              value: 0
              inSlope: 1
              outSlope: 1
              tangentMode: 0
            - serializedVersion: 2
              time: 1
              value: 1
              inSlope: 1
              outSlope: 1
              tangentMode: 0
            m_PreInfinity: 2
            m_PostInfinity: 2
            m_RotationOrder: 0
          m_Loop: 0
          m_ZeroValue: 0
          m_Range: 1
        red:
          curve:
            serializedVersion: 2
            m_Curve:
            - serializedVersion: 2
              time: 0
              value: 0
              inSlope: 1
              outSlope: 1
              tangentMode: 0
            - serializedVersion: 2
              time: 1
              value: 1
              inSlope: 1
              outSlope: 1
              tangentMode: 0
            m_PreInfinity: 2
            m_PostInfinity: 2
            m_RotationOrder: 4
          m_Loop: 0
          m_ZeroValue: 0
          m_Range: 1
        green:
          curve:
            serializedVersion: 2
            m_Curve:
            - serializedVersion: 2
              time: 0
              value: 0
              inSlope: 1
              outSlope: 1
              tangentMode: 0
            - serializedVersion: 2
              time: 1
              value: 1
              inSlope: 1
              outSlope: 1
              tangentMode: 0
            m_PreInfinity: 2
            m_PostInfinity: 2
            m_RotationOrder: 4
          m_Loop: 0
          m_ZeroValue: 0
          m_Range: 1
        blue:
          curve:
            serializedVersion: 2
            m_Curve:
            - serializedVersion: 2
              time: 0
              value: 0
              inSlope: 1
              outSlope: 1
              tangentMode: 0
            - serializedVersion: 2
              time: 1
              value: 1
              inSlope: 1
              outSlope: 1
              tangentMode: 0
            m_PreInfinity: 2
            m_PostInfinity: 2
            m_RotationOrder: 4
          m_Loop: 0
          m_ZeroValue: 0
          m_Range: 1
        hueVShue:
          curve:
            serializedVersion: 2
            m_Curve: []
            m_PreInfinity: 2
            m_PostInfinity: 2
            m_RotationOrder: 4
          m_Loop: 1
          m_ZeroValue: 0.5
          m_Range: 1
        hueVSsat:
          curve:
            serializedVersion: 2
            m_Curve: []
            m_PreInfinity: 2
            m_PostInfinity: 2
            m_RotationOrder: 4
          m_Loop: 1
          m_ZeroValue: 0.5
          m_Range: 1
        satVSsat:
          curve:
            serializedVersion: 2
            m_Curve: []
            m_PreInfinity: 2
            m_PostInfinity: 2
            m_RotationOrder: 4
          m_Loop: 0
          m_ZeroValue: 0.5
          m_Range: 1
        lumVSsat:
          curve:
            serializedVersion: 2
            m_Curve: []
            m_PreInfinity: 2
            m_PostInfinity: 2
            m_RotationOrder: 4
          m_Loop: 0
          m_ZeroValue: 0.5
          m_Range: 1
        e_CurrentEditingCurve: 0
        e_CurveY: 1
        e_CurveR: 0
        e_CurveG: 0
        e_CurveB: 0
  userLut:
    m_Enabled: 0
    m_Settings:
      lut: {fileID: 0}
      contribution: 1
  chromaticAberration:
    m_Enabled: 0
    m_Settings:
      spectralTexture: {fileID: 0}
      intensity: 0.1
  grain:
    m_Enabled: 0
    m_Settings:
      colored: 1
      intensity: 0.5
      size: 1
      luminanceContribution: 0.8
  vignette:
    m_Enabled: 0
    m_Settings:
      mode: 0
      color: {r: 0, g: 0, b: 0, a: 1}
      center: {x: 0.5, y: 0.5}
      intensity: 0.45
      smoothness: 0.2
      roundness: 1
      mask: {fileID: 0}
      opacity: 1
      rounded: 0
  dithering:
    m_Enabled: 0
  monitors:
    currentMonitorID: 0
    refreshOnPlay: 0
    histogramMode: 3
    waveformExposure: 0.12
    waveformY: 0
    waveformR: 1
    waveformG: 1
    waveformB: 1
    paradeExposure: 0.12
    vectorscopeExposure: 0.12
    vectorscopeShowBackground: 1
